<?xml version="1.0" encoding="UTF-8"?>
<svg xmlns="http://www.w3.org/2000/svg" xmlns:xlink="http://www.w3.org/1999/xlink" width="522pt" height="467pt" viewBox="0 0 522 467" version="1.1">
<defs>
<g>
<symbol overflow="visible" id="glyph0-0">
<path style="stroke:none;" d=""/>
</symbol>
<symbol overflow="visible" id="glyph0-1">
<path style="stroke:none;" d="M 6.078125 -4.09375 C 6.078125 -7.046875 5.140625 -8.515625 3.296875 -8.515625 C 1.46875 -8.515625 0.515625 -7.015625 0.515625 -4.15625 C 0.515625 -1.296875 1.46875 0.1875 3.296875 0.1875 C 5.09375 0.1875 6.078125 -1.296875 6.078125 -4.09375 Z M 5 -4.1875 C 5 -1.78125 4.453125 -0.703125 3.28125 -0.703125 C 2.15625 -0.703125 1.59375 -1.828125 1.59375 -4.15625 C 1.59375 -6.484375 2.15625 -7.578125 3.296875 -7.578125 C 4.4375 -7.578125 5 -6.46875 5 -4.1875 Z M 5 -4.1875 "/>
</symbol>
<symbol overflow="visible" id="glyph0-2">
<path style="stroke:none;" d="M 6.15625 -2.8125 C 6.15625 -4.5 5.046875 -5.609375 3.40625 -5.609375 C 2.8125 -5.609375 2.328125 -5.453125 1.84375 -5.09375 L 2.171875 -7.28125 L 5.71875 -7.28125 L 5.71875 -8.328125 L 1.3125 -8.328125 L 0.6875 -3.875 L 1.65625 -3.875 C 2.140625 -4.46875 2.5625 -4.671875 3.21875 -4.671875 C 4.359375 -4.671875 5.078125 -3.9375 5.078125 -2.671875 C 5.078125 -1.453125 4.375 -0.75 3.21875 -0.75 C 2.296875 -0.75 1.734375 -1.21875 1.46875 -2.1875 L 0.421875 -2.1875 C 0.765625 -0.484375 1.734375 0.1875 3.234375 0.1875 C 4.953125 0.1875 6.15625 -1.015625 6.15625 -2.8125 Z M 6.15625 -2.8125 "/>
</symbol>
<symbol overflow="visible" id="glyph0-3">
<path style="stroke:none;" d="M 4.15625 0 L 4.15625 -8.515625 L 3.46875 -8.515625 C 3.09375 -7.203125 2.859375 -7.015625 1.21875 -6.8125 L 1.21875 -6.0625 L 3.109375 -6.0625 L 3.109375 0 Z M 4.15625 0 "/>
</symbol>
<symbol overflow="visible" id="glyph0-4">
<path style="stroke:none;" d="M 7.453125 -2.40625 C 7.453125 -3.484375 6.78125 -4.265625 5.59375 -4.59375 L 3.390625 -5.1875 C 2.34375 -5.453125 1.953125 -5.8125 1.953125 -6.484375 C 1.953125 -7.375 2.734375 -8.03125 3.90625 -8.03125 C 5.296875 -8.03125 6.09375 -7.390625 6.09375 -6.25 L 7.15625 -6.25 C 7.15625 -7.96875 5.96875 -8.96875 3.953125 -8.96875 C 2.03125 -8.96875 0.84375 -7.90625 0.84375 -6.328125 C 0.84375 -5.25 1.40625 -4.578125 2.5625 -4.28125 L 4.734375 -3.703125 C 5.828125 -3.421875 6.34375 -2.96875 6.34375 -2.296875 C 6.34375 -1.328125 5.609375 -0.765625 4.109375 -0.765625 C 2.453125 -0.765625 1.625 -1.59375 1.625 -2.84375 L 0.578125 -2.84375 C 0.578125 -0.78125 1.96875 0.21875 4.03125 0.21875 C 6.25 0.21875 7.453125 -0.84375 7.453125 -2.40625 Z M 7.453125 -2.40625 "/>
</symbol>
<symbol overflow="visible" id="glyph0-5">
<path style="stroke:none;" d="M 8.125 -3.1875 L 6.96875 -3.1875 C 6.703125 -1.53125 6.015625 -0.765625 4.53125 -0.765625 C 2.796875 -0.765625 1.6875 -2.09375 1.6875 -4.28125 C 1.6875 -6.53125 2.75 -7.984375 4.4375 -7.984375 C 5.8125 -7.984375 6.53125 -7.375 6.796875 -6.03125 L 7.9375 -6.03125 C 7.59375 -7.953125 6.484375 -8.96875 4.578125 -8.96875 C 1.921875 -8.96875 0.578125 -6.828125 0.578125 -4.265625 C 0.578125 -1.71875 1.953125 0.21875 4.53125 0.21875 C 6.65625 0.21875 7.859375 -0.90625 8.125 -3.1875 Z M 8.125 -3.1875 "/>
</symbol>
<symbol overflow="visible" id="glyph0-6">
<path style="stroke:none;" d="M 8 -4.375 C 8 -7.09375 6.65625 -8.75 4.4375 -8.75 L 1.0625 -8.75 L 1.0625 0 L 4.4375 0 C 6.640625 0 8 -1.65625 8 -4.375 Z M 6.890625 -4.375 C 6.890625 -2.15625 5.96875 -0.984375 4.25 -0.984375 L 2.1875 -0.984375 L 2.1875 -7.765625 L 4.25 -7.765625 C 5.96875 -7.765625 6.890625 -6.59375 6.890625 -4.375 Z M 6.890625 -4.375 "/>
</symbol>
<symbol overflow="visible" id="glyph0-7">
<path style="stroke:none;" d="M 7.84375 0 L 4.765625 -8.75 L 3.328125 -8.75 L 0.203125 0 L 1.390625 0 L 2.3125 -2.625 L 5.6875 -2.625 L 6.59375 0 Z M 5.375 -3.5625 L 2.59375 -3.5625 L 4.03125 -7.546875 Z M 5.375 -3.5625 "/>
</symbol>
<symbol overflow="visible" id="glyph0-8">
<path style="stroke:none;" d="M 6.125 -6.015625 C 6.125 -7.453125 5.015625 -8.515625 3.40625 -8.515625 C 1.671875 -8.515625 0.65625 -7.625 0.59375 -5.5625 L 1.65625 -5.5625 C 1.734375 -6.984375 2.328125 -7.578125 3.375 -7.578125 C 4.328125 -7.578125 5.046875 -6.90625 5.046875 -5.984375 C 5.046875 -5.3125 4.65625 -4.734375 3.90625 -4.3125 L 2.796875 -3.6875 C 1.015625 -2.671875 0.5 -1.875 0.40625 0 L 6.078125 0 L 6.078125 -1.046875 L 1.59375 -1.046875 C 1.703125 -1.734375 2.09375 -2.1875 3.125 -2.796875 L 4.328125 -3.4375 C 5.515625 -4.078125 6.125 -4.96875 6.125 -6.015625 Z M 6.125 -6.015625 "/>
</symbol>
<symbol overflow="visible" id="glyph0-9">
<path style="stroke:none;" d="M 6.234375 -7.4375 L 6.234375 -8.328125 L 0.546875 -8.328125 L 0.546875 -7.28125 L 5.140625 -7.28125 C 3.453125 -5.140625 2.25 -2.65625 1.65625 0 L 2.78125 0 C 3.25 -2.75 4.453125 -5.3125 6.234375 -7.4375 Z M 6.234375 -7.4375 "/>
</symbol>
<symbol overflow="visible" id="glyph0-10">
<path style="stroke:none;" d="M 6.234375 -2.046875 L 6.234375 -2.984375 L 4.984375 -2.984375 L 4.984375 -8.515625 L 4.203125 -8.515625 L 0.34375 -3.15625 L 0.34375 -2.046875 L 3.921875 -2.046875 L 3.921875 0 L 4.984375 0 L 4.984375 -2.046875 Z M 3.921875 -2.984375 L 1.265625 -2.984375 L 3.921875 -6.703125 Z M 3.921875 -2.984375 "/>
</symbol>
<symbol overflow="visible" id="glyph0-11">
<path style="stroke:none;" d="M 6.15625 -2.640625 C 6.15625 -4.21875 5.078125 -5.296875 3.546875 -5.296875 C 2.71875 -5.296875 2.046875 -4.96875 1.59375 -4.34375 C 1.609375 -6.421875 2.28125 -7.578125 3.484375 -7.578125 C 4.234375 -7.578125 4.75 -7.109375 4.921875 -6.28125 L 5.96875 -6.28125 C 5.765625 -7.6875 4.859375 -8.515625 3.5625 -8.515625 C 1.578125 -8.515625 0.515625 -6.84375 0.515625 -3.875 C 0.515625 -1.21875 1.421875 0.1875 3.375 0.1875 C 4.984375 0.1875 6.15625 -0.96875 6.15625 -2.640625 Z M 5.078125 -2.5625 C 5.078125 -1.484375 4.359375 -0.75 3.390625 -0.75 C 2.40625 -0.75 1.65625 -1.53125 1.65625 -2.609375 C 1.65625 -3.671875 2.375 -4.359375 3.421875 -4.359375 C 4.4375 -4.359375 5.078125 -3.703125 5.078125 -2.5625 Z M 5.078125 -2.5625 "/>
</symbol>
<symbol overflow="visible" id="glyph0-12">
<path style="stroke:none;" d="M 6.078125 -2.46875 C 6.078125 -3.5 5.65625 -4.109375 4.625 -4.453125 C 5.421875 -4.765625 5.8125 -5.3125 5.8125 -6.171875 C 5.8125 -7.625 4.84375 -8.515625 3.234375 -8.515625 C 1.515625 -8.515625 0.59375 -7.578125 0.5625 -5.765625 L 1.625 -5.765625 C 1.640625 -7.015625 2.15625 -7.578125 3.234375 -7.578125 C 4.171875 -7.578125 4.734375 -7.03125 4.734375 -6.125 C 4.734375 -5.21875 4.34375 -4.84375 2.65625 -4.84375 L 2.65625 -3.953125 L 3.234375 -3.953125 C 4.390625 -3.953125 4.984375 -3.40625 4.984375 -2.453125 C 4.984375 -1.390625 4.328125 -0.75 3.234375 -0.75 C 2.078125 -0.75 1.515625 -1.328125 1.4375 -2.5625 L 0.390625 -2.5625 C 0.515625 -0.671875 1.453125 0.1875 3.1875 0.1875 C 4.9375 0.1875 6.078125 -0.859375 6.078125 -2.46875 Z M 6.078125 -2.46875 "/>
</symbol>
<symbol overflow="visible" id="glyph0-13">
<path style="stroke:none;" d="M 6.15625 -2.859375 C 6.15625 -3.765625 6.078125 -4.34375 5.90625 -4.8125 C 5.5 -5.84375 4.53125 -6.46875 3.359375 -6.46875 C 1.609375 -6.46875 0.484375 -5.171875 0.484375 -3.109375 C 0.484375 -1.046875 1.578125 0.1875 3.34375 0.1875 C 4.78125 0.1875 5.765625 -0.640625 6.03125 -1.90625 L 5.015625 -1.90625 C 4.734375 -1.078125 4.171875 -0.75 3.375 -0.75 C 2.328125 -0.75 1.546875 -1.421875 1.53125 -2.859375 Z M 5.09375 -3.75 C 5.09375 -3.75 5.09375 -3.703125 5.078125 -3.671875 L 1.546875 -3.671875 C 1.625 -4.78125 2.34375 -5.546875 3.34375 -5.546875 C 4.328125 -5.546875 5.09375 -4.734375 5.09375 -3.75 Z M 5.09375 -3.75 "/>
</symbol>
<symbol overflow="visible" id="glyph0-14">
<path style="stroke:none;" d="M 6.1875 -2.59375 L 6.1875 -3.40625 L 3.90625 -3.40625 L 3.90625 -5.6875 L 3.09375 -5.6875 L 3.09375 -3.40625 L 0.8125 -3.40625 L 0.8125 -2.59375 L 3.09375 -2.59375 L 3.09375 -0.3125 L 3.90625 -0.3125 L 3.90625 -2.59375 Z M 6.1875 -2.59375 "/>
</symbol>
<symbol overflow="visible" id="glyph1-0">
<path style="stroke:none;" d=""/>
</symbol>
<symbol overflow="visible" id="glyph1-1">
<path style="stroke:none;" d="M 8.296875 -9.0625 L 8.296875 -10.203125 L 0.296875 -10.203125 L 0.296875 -9.0625 L 3.65625 -9.0625 L 3.65625 0 L 4.953125 0 L 4.953125 -9.0625 Z M 8.296875 -9.0625 "/>
</symbol>
<symbol overflow="visible" id="glyph1-2">
<path style="stroke:none;" d="M 7.140625 -3.609375 C 7.140625 -6.140625 5.921875 -7.546875 3.8125 -7.546875 C 1.75 -7.546875 0.5 -6.125 0.5 -3.671875 C 0.5 -1.203125 1.734375 0.203125 3.828125 0.203125 C 5.875 0.203125 7.140625 -1.203125 7.140625 -3.609375 Z M 5.921875 -3.625 C 5.921875 -1.90625 5.109375 -0.875 3.828125 -0.875 C 2.515625 -0.875 1.71875 -1.890625 1.71875 -3.671875 C 1.71875 -5.4375 2.515625 -6.46875 3.828125 -6.46875 C 5.140625 -6.46875 5.921875 -5.453125 5.921875 -3.625 Z M 5.921875 -3.625 "/>
</symbol>
<symbol overflow="visible" id="glyph1-3">
<path style="stroke:none;" d="M 7.328125 -3.59375 C 7.328125 -6.0625 6.125 -7.546875 4.171875 -7.546875 C 3.171875 -7.546875 2.375 -7.09375 1.828125 -6.234375 L 1.828125 -7.34375 L 0.765625 -7.34375 L 0.765625 3.046875 L 1.9375 3.046875 L 1.9375 -0.875 C 2.546875 -0.125 3.234375 0.203125 4.1875 0.203125 C 6.078125 0.203125 7.328125 -1.265625 7.328125 -3.59375 Z M 6.109375 -3.625 C 6.109375 -1.953125 5.25 -0.875 3.96875 -0.875 C 2.75 -0.875 1.9375 -1.890625 1.9375 -3.609375 C 1.9375 -5.328125 2.75 -6.453125 3.96875 -6.453125 C 5.265625 -6.453125 6.109375 -5.375 6.109375 -3.625 Z M 6.109375 -3.625 "/>
</symbol>
<symbol overflow="visible" id="glyph1-4">
<path style="stroke:none;" d="M 2.109375 0 L 2.109375 -10.203125 L 0.953125 -10.203125 L 0.953125 0 Z M 2.109375 0 "/>
</symbol>
<symbol overflow="visible" id="glyph1-5">
<path style="stroke:none;" d="M 6.84375 -1.203125 L 6.84375 -7.34375 L 5.765625 -7.34375 L 5.765625 -6.265625 C 5.1875 -7.140625 4.46875 -7.546875 3.53125 -7.546875 C 1.671875 -7.546875 0.40625 -5.984375 0.40625 -3.59375 C 0.40625 -1.28125 1.703125 0.203125 3.4375 0.203125 C 4.359375 0.203125 5 -0.1875 5.765625 -1.109375 L 5.765625 -0.609375 C 5.765625 1.328125 4.96875 2.078125 3.609375 2.078125 C 2.6875 2.078125 1.96875 1.734375 1.828125 0.84375 L 0.640625 0.84375 C 0.765625 2.21875 1.84375 3.046875 3.5625 3.046875 C 5.859375 3.046875 6.84375 2.03125 6.84375 -1.203125 Z M 5.65625 -3.625 C 5.65625 -1.875 4.90625 -0.875 3.671875 -0.875 C 2.390625 -0.875 1.625 -1.890625 1.625 -3.671875 C 1.625 -5.4375 2.40625 -6.46875 3.65625 -6.46875 C 4.90625 -6.46875 5.65625 -5.40625 5.65625 -3.625 Z M 5.65625 -3.625 "/>
</symbol>
<symbol overflow="visible" id="glyph1-6">
<path style="stroke:none;" d="M 6.6875 -7.34375 L 5.4375 -7.34375 L 3.40625 -1.625 L 1.53125 -7.34375 L 0.28125 -7.34375 L 2.765625 0.03125 L 2.3125 1.1875 C 2.109375 1.703125 1.875 1.90625 1.375 1.90625 C 1.203125 1.90625 1.015625 1.875 0.75 1.8125 L 0.75 2.875 C 1 3 1.234375 3.046875 1.546875 3.046875 C 2.359375 3.046875 3.03125 2.59375 3.4375 1.546875 Z M 6.6875 -7.34375 "/>
</symbol>
<symbol overflow="visible" id="glyph1-7">
<path style="stroke:none;" d="M 8.71875 -2.90625 C 8.71875 -4.140625 8.15625 -4.890625 6.859375 -5.390625 C 7.78125 -5.828125 8.28125 -6.578125 8.28125 -7.609375 C 8.28125 -9.09375 7.1875 -10.203125 5.25 -10.203125 L 1.109375 -10.203125 L 1.109375 0 L 5.71875 0 C 7.546875 0 8.71875 -1.234375 8.71875 -2.90625 Z M 6.96875 -7.4375 C 6.96875 -6.390625 6.375 -5.8125 4.921875 -5.8125 L 2.40625 -5.8125 L 2.40625 -9.0625 L 4.921875 -9.0625 C 6.375 -9.0625 6.96875 -8.46875 6.96875 -7.4375 Z M 7.421875 -2.890625 C 7.421875 -1.921875 6.8125 -1.140625 5.59375 -1.140625 L 2.40625 -1.140625 L 2.40625 -4.65625 L 5.59375 -4.65625 C 6.8125 -4.65625 7.421875 -3.890625 7.421875 -2.890625 Z M 7.421875 -2.890625 "/>
</symbol>
<symbol overflow="visible" id="glyph1-8">
<path style="stroke:none;" d="M 2.140625 0 L 2.140625 -7.34375 L 0.984375 -7.34375 L 0.984375 0 Z M 2.296875 -8.4375 L 2.296875 -9.890625 L 0.84375 -9.890625 L 0.84375 -8.4375 Z M 2.296875 -8.4375 "/>
</symbol>
<symbol overflow="visible" id="glyph1-9">
<path style="stroke:none;" d="M 7.484375 -0.03125 L 7.484375 -0.90625 C 7.359375 -0.875 7.3125 -0.875 7.234375 -0.875 C 6.828125 -0.875 6.609375 -1.09375 6.609375 -1.453125 L 6.609375 -5.546875 C 6.609375 -6.84375 5.65625 -7.546875 3.84375 -7.546875 C 2.078125 -7.546875 0.984375 -6.859375 0.90625 -5.171875 L 2.09375 -5.171875 C 2.1875 -6.0625 2.71875 -6.46875 3.8125 -6.46875 C 4.859375 -6.46875 5.453125 -6.078125 5.453125 -5.375 L 5.453125 -5.0625 C 5.453125 -4.578125 5.15625 -4.375 4.234375 -4.25 C 2.578125 -4.046875 2.328125 -3.984375 1.875 -3.8125 C 1.015625 -3.453125 0.59375 -2.796875 0.59375 -1.90625 C 0.59375 -0.578125 1.515625 0.203125 3 0.203125 C 3.9375 0.203125 4.84375 -0.1875 5.484375 -0.875 C 5.609375 -0.3125 6.125 0.09375 6.6875 0.09375 C 6.9375 0.09375 7.109375 0.0625 7.484375 -0.03125 Z M 5.453125 -2.53125 C 5.453125 -1.484375 4.375 -0.8125 3.25 -0.8125 C 2.34375 -0.8125 1.8125 -1.140625 1.8125 -1.9375 C 1.8125 -2.703125 2.328125 -3.03125 3.5625 -3.21875 C 4.796875 -3.390625 5.046875 -3.4375 5.453125 -3.625 Z M 5.453125 -2.53125 "/>
</symbol>
<symbol overflow="visible" id="glyph1-10">
<path style="stroke:none;" d="M 4.5 -6.3125 L 4.5 -7.5 C 4.296875 -7.53125 4.203125 -7.546875 4.046875 -7.546875 C 3.296875 -7.546875 2.71875 -7.09375 2.046875 -6 L 2.046875 -7.34375 L 0.984375 -7.34375 L 0.984375 0 L 2.140625 0 L 2.140625 -3.8125 C 2.140625 -5.453125 2.6875 -6.28125 4.5 -6.3125 Z M 4.5 -6.3125 "/>
</symbol>
<symbol overflow="visible" id="glyph1-11">
<path style="stroke:none;" d="M 3.5625 0 L 3.5625 -0.984375 C 3.40625 -0.9375 3.21875 -0.921875 3 -0.921875 C 2.484375 -0.921875 2.359375 -1.0625 2.359375 -1.578125 L 2.359375 -6.390625 L 3.5625 -6.390625 L 3.5625 -7.34375 L 2.359375 -7.34375 L 2.359375 -9.359375 L 1.1875 -9.359375 L 1.1875 -7.34375 L 0.203125 -7.34375 L 0.203125 -6.390625 L 1.1875 -6.390625 L 1.1875 -1.0625 C 1.1875 -0.328125 1.6875 0.09375 2.609375 0.09375 C 2.890625 0.09375 3.15625 0.0625 3.5625 0 Z M 3.5625 0 "/>
</symbol>
<symbol overflow="visible" id="glyph1-12">
<path style="stroke:none;" d="M 6.8125 0 L 6.8125 -5.546875 C 6.8125 -6.765625 5.90625 -7.546875 4.5 -7.546875 C 3.40625 -7.546875 2.703125 -7.125 2.0625 -6.109375 L 2.0625 -7.34375 L 0.984375 -7.34375 L 0.984375 0 L 2.140625 0 L 2.140625 -4.046875 C 2.140625 -5.546875 2.953125 -6.53125 4.140625 -6.53125 C 5.0625 -6.53125 5.65625 -5.96875 5.65625 -5.078125 L 5.65625 0 Z M 6.8125 0 "/>
</symbol>
<symbol overflow="visible" id="glyph2-0">
<path style="stroke:none;" d=""/>
</symbol>
<symbol overflow="visible" id="glyph2-1">
<path style="stroke:none;" d="M 0 -9.921875 L -5.390625 -9.921875 L -5.390625 -5.671875 L -4.234375 -5.671875 L -4.234375 -8.78125 L -3.96875 -8.78125 C -2.140625 -8.78125 -0.890625 -7.4375 -0.890625 -5.578125 C -0.890625 -3.265625 -2.578125 -1.921875 -5.0625 -1.921875 C -7.578125 -1.921875 -9.3125 -3.34375 -9.3125 -5.5 C -9.3125 -7.0625 -8.421875 -8.171875 -7.109375 -8.453125 L -7.109375 -9.78125 C -9.1875 -9.421875 -10.453125 -7.859375 -10.453125 -5.515625 C -10.453125 -2.390625 -8.046875 -0.609375 -5 -0.609375 C -1.859375 -0.609375 0.25 -2.53125 0.25 -5.296875 C 0.25 -6.671875 -0.234375 -7.78125 -1.34375 -8.78125 L 0 -9.09375 Z M 0 -9.921875 "/>
</symbol>
<symbol overflow="visible" id="glyph2-2">
<path style="stroke:none;" d="M -3.328125 -7.1875 C -4.390625 -7.1875 -5.0625 -7.09375 -5.609375 -6.890625 C -6.8125 -6.40625 -7.546875 -5.296875 -7.546875 -3.921875 C -7.546875 -1.875 -6.03125 -0.5625 -3.625 -0.5625 C -1.21875 -0.5625 0.203125 -1.828125 0.203125 -3.890625 C 0.203125 -5.578125 -0.734375 -6.734375 -2.21875 -7.03125 L -2.21875 -5.859375 C -1.265625 -5.53125 -0.875 -4.875 -0.875 -3.9375 C -0.875 -2.71875 -1.65625 -1.8125 -3.328125 -1.78125 Z M -4.375 -5.9375 C -4.375 -5.9375 -4.3125 -5.9375 -4.28125 -5.921875 L -4.28125 -1.8125 C -5.59375 -1.90625 -6.46875 -2.734375 -6.46875 -3.90625 C -6.46875 -5.046875 -5.515625 -5.9375 -4.375 -5.9375 Z M -4.375 -5.9375 "/>
</symbol>
<symbol overflow="visible" id="glyph2-3">
<path style="stroke:none;" d="M 0 -6.8125 L -5.546875 -6.8125 C -6.765625 -6.8125 -7.546875 -5.90625 -7.546875 -4.5 C -7.546875 -3.40625 -7.125 -2.703125 -6.109375 -2.0625 L -7.34375 -2.0625 L -7.34375 -0.984375 L 0 -0.984375 L 0 -2.140625 L -4.046875 -2.140625 C -5.546875 -2.140625 -6.53125 -2.953125 -6.53125 -4.140625 C -6.53125 -5.0625 -5.96875 -5.65625 -5.078125 -5.65625 L 0 -5.65625 Z M 0 -6.8125 "/>
</symbol>
<symbol overflow="visible" id="glyph2-4">
<path style="stroke:none;" d=""/>
</symbol>
<symbol overflow="visible" id="glyph2-5">
<path style="stroke:none;" d="M -3.71875 -9.484375 L -3.71875 -8.140625 C -1.796875 -7.828125 -0.890625 -7.015625 -0.890625 -5.296875 C -0.890625 -3.265625 -2.453125 -1.96875 -5 -1.96875 C -7.609375 -1.96875 -9.3125 -3.203125 -9.3125 -5.1875 C -9.3125 -6.78125 -8.59375 -7.609375 -7.046875 -7.9375 L -7.046875 -9.265625 C -9.28125 -8.859375 -10.453125 -7.578125 -10.453125 -5.328125 C -10.453125 -2.234375 -7.96875 -0.671875 -4.984375 -0.671875 C -2 -0.671875 0.25 -2.28125 0.25 -5.28125 C 0.25 -7.765625 -1.0625 -9.171875 -3.71875 -9.484375 Z M -3.71875 -9.484375 "/>
</symbol>
<symbol overflow="visible" id="glyph2-6">
<path style="stroke:none;" d="M -3.609375 -7.140625 C -6.140625 -7.140625 -7.546875 -5.921875 -7.546875 -3.8125 C -7.546875 -1.75 -6.125 -0.5 -3.671875 -0.5 C -1.203125 -0.5 0.203125 -1.734375 0.203125 -3.828125 C 0.203125 -5.875 -1.203125 -7.140625 -3.609375 -7.140625 Z M -3.625 -5.921875 C -1.90625 -5.921875 -0.875 -5.109375 -0.875 -3.828125 C -0.875 -2.515625 -1.890625 -1.71875 -3.671875 -1.71875 C -5.4375 -1.71875 -6.46875 -2.515625 -6.46875 -3.828125 C -6.46875 -5.140625 -5.453125 -5.921875 -3.625 -5.921875 Z M -3.625 -5.921875 "/>
</symbol>
<symbol overflow="visible" id="glyph2-7">
<path style="stroke:none;" d="M 0 -6.75 L -7.34375 -6.75 L -7.34375 -5.59375 L -3.296875 -5.59375 C -1.796875 -5.59375 -0.8125 -4.796875 -0.8125 -3.578125 C -0.8125 -2.65625 -1.375 -2.078125 -2.25 -2.078125 L -7.34375 -2.078125 L -7.34375 -0.90625 L -1.796875 -0.90625 C -0.578125 -0.90625 0.203125 -1.8125 0.203125 -3.25 C 0.203125 -4.328125 -0.171875 -5.015625 -1.140625 -5.703125 L 0 -5.703125 Z M 0 -6.75 "/>
</symbol>
<symbol overflow="visible" id="glyph2-8">
<path style="stroke:none;" d="M 0 -3.5625 L -0.984375 -3.5625 C -0.9375 -3.40625 -0.921875 -3.21875 -0.921875 -3 C -0.921875 -2.484375 -1.0625 -2.359375 -1.578125 -2.359375 L -6.390625 -2.359375 L -6.390625 -3.5625 L -7.34375 -3.5625 L -7.34375 -2.359375 L -9.359375 -2.359375 L -9.359375 -1.1875 L -7.34375 -1.1875 L -7.34375 -0.203125 L -6.390625 -0.203125 L -6.390625 -1.1875 L -1.0625 -1.1875 C -0.328125 -1.1875 0.09375 -1.6875 0.09375 -2.609375 C 0.09375 -2.890625 0.0625 -3.15625 0 -3.5625 Z M 0 -3.5625 "/>
</symbol>
<symbol overflow="visible" id="glyph2-9">
<path style="stroke:none;" d="M -2.796875 -8.6875 C -4.0625 -8.6875 -4.984375 -7.90625 -5.359375 -6.53125 L -6.046875 -3.96875 C -6.375 -2.734375 -6.78125 -2.28125 -7.5625 -2.28125 C -8.59375 -2.28125 -9.359375 -3.1875 -9.359375 -4.5625 C -9.359375 -6.1875 -8.625 -7.109375 -7.296875 -7.109375 L -7.296875 -8.34375 C -9.296875 -8.34375 -10.453125 -6.953125 -10.453125 -4.609375 C -10.453125 -2.359375 -9.21875 -0.984375 -7.375 -0.984375 C -6.125 -0.984375 -5.34375 -1.640625 -5 -2.984375 L -4.328125 -5.515625 C -3.984375 -6.796875 -3.46875 -7.390625 -2.671875 -7.390625 C -1.546875 -7.390625 -0.890625 -6.546875 -0.890625 -4.78125 C -0.890625 -2.859375 -1.859375 -1.90625 -3.3125 -1.90625 L -3.3125 -0.671875 C -0.90625 -0.671875 0.25 -2.296875 0.25 -4.703125 C 0.25 -7.296875 -0.984375 -8.6875 -2.796875 -8.6875 Z M -2.796875 -8.6875 "/>
</symbol>
<symbol overflow="visible" id="glyph2-10">
<path style="stroke:none;" d="M 0 -2.140625 L -7.34375 -2.140625 L -7.34375 -0.984375 L 0 -0.984375 Z M -8.4375 -2.296875 L -9.890625 -2.296875 L -9.890625 -0.84375 L -8.4375 -0.84375 Z M -8.4375 -2.296875 "/>
</symbol>
<symbol overflow="visible" id="glyph3-0">
<path style="stroke:none;" d=""/>
</symbol>
<symbol overflow="visible" id="glyph3-1">
<path style="stroke:none;" d="M 8.375 -8.453125 L 8.375 -10.203125 L 0.203125 -10.203125 L 0.203125 -8.453125 L 3.296875 -8.453125 L 3.296875 0 L 5.390625 0 L 5.390625 -8.453125 Z M 8.375 -8.453125 "/>
</symbol>
<symbol overflow="visible" id="glyph3-2">
<path style="stroke:none;" d="M 10.71875 -7.5625 L 8.6875 -7.5625 L 7.546875 -2.265625 L 6.40625 -7.5625 L 4.453125 -7.5625 L 3.296875 -2.265625 L 2.09375 -7.5625 L 0.0625 -7.5625 L 2.203125 0 L 4.21875 0 L 5.421875 -5.328125 L 6.546875 0 L 8.578125 0 Z M 10.71875 -7.5625 "/>
</symbol>
<symbol overflow="visible" id="glyph3-3">
<path style="stroke:none;" d="M 7.96875 -3.71875 C 7.96875 -6.28125 6.578125 -7.6875 4.21875 -7.6875 C 1.90625 -7.6875 0.484375 -6.265625 0.484375 -3.78125 C 0.484375 -1.28125 1.90625 0.125 4.234375 0.125 C 6.53125 0.125 7.96875 -1.296875 7.96875 -3.71875 Z M 6 -3.75 C 6 -2.34375 5.28125 -1.453125 4.234375 -1.453125 C 3.15625 -1.453125 2.453125 -2.34375 2.453125 -3.78125 C 2.453125 -5.21875 3.15625 -6.109375 4.234375 -6.109375 C 5.3125 -6.109375 6 -5.234375 6 -3.75 Z M 6 -3.75 "/>
</symbol>
<symbol overflow="visible" id="glyph3-4">
<path style="stroke:none;" d=""/>
</symbol>
<symbol overflow="visible" id="glyph3-5">
<path style="stroke:none;" d="M 8.03125 -3.78125 C 8.03125 -6.015625 6.84375 -7.6875 4.875 -7.6875 C 3.921875 -7.6875 3.25 -7.28125 2.765625 -6.4375 L 2.765625 -7.5625 L 0.8125 -7.5625 L 0.8125 3.046875 L 2.765625 3.046875 L 2.765625 -1.015625 C 3.25 -0.171875 3.921875 0.125 4.875 0.125 C 6.6875 0.125 8.03125 -1.484375 8.03125 -3.78125 Z M 6.078125 -3.75 C 6.078125 -2.375 5.390625 -1.515625 4.421875 -1.515625 C 3.4375 -1.515625 2.765625 -2.359375 2.765625 -3.78125 C 2.765625 -5.1875 3.4375 -6.046875 4.421875 -6.046875 C 5.421875 -6.046875 6.078125 -5.1875 6.078125 -3.75 Z M 6.078125 -3.75 "/>
</symbol>
<symbol overflow="visible" id="glyph3-6">
<path style="stroke:none;" d="M 9.0625 -10.203125 L 6.9375 -10.203125 L 4.71875 -2.515625 L 2.453125 -10.203125 L 0.34375 -10.203125 L 3.78125 0 L 5.5625 0 Z M 9.0625 -10.203125 "/>
</symbol>
<symbol overflow="visible" id="glyph3-7">
<path style="stroke:none;" d="M 7.34375 -3.5 C 7.34375 -6.109375 6.03125 -7.6875 3.8125 -7.6875 C 1.640625 -7.6875 0.3125 -6.21875 0.3125 -3.6875 C 0.3125 -1.265625 1.625 0.125 3.765625 0.125 C 5.453125 0.125 6.828125 -0.640625 7.265625 -2.125 L 5.328125 -2.125 C 5.171875 -1.578125 4.546875 -1.375 3.84375 -1.375 C 2.90625 -1.375 2.328125 -1.796875 2.265625 -3.265625 L 7.34375 -3.265625 Z M 5.3125 -4.5625 L 2.296875 -4.5625 C 2.421875 -5.609375 2.90625 -6.1875 3.78125 -6.1875 C 4.625 -6.1875 5.203125 -5.640625 5.3125 -4.5625 Z M 5.3125 -4.5625 "/>
</symbol>
<symbol overflow="visible" id="glyph3-8">
<path style="stroke:none;" d="M 5.1875 -5.6875 L 5.1875 -7.671875 C 5.0625 -7.6875 5 -7.6875 4.9375 -7.6875 C 4.046875 -7.6875 3.265625 -7.09375 2.84375 -6.078125 L 2.84375 -7.5625 L 0.875 -7.5625 L 0.875 0 L 2.84375 0 L 2.84375 -4.015625 C 2.84375 -5.171875 3.421875 -5.734375 4.5625 -5.734375 C 4.78125 -5.734375 4.90625 -5.71875 5.1875 -5.6875 Z M 5.1875 -5.6875 "/>
</symbol>
<symbol overflow="visible" id="glyph3-9">
<path style="stroke:none;" d="M 4.21875 0 L 4.21875 -1.375 C 4.015625 -1.34375 3.90625 -1.328125 3.765625 -1.328125 C 3.25 -1.328125 3.125 -1.484375 3.125 -2.15625 L 3.125 -6.109375 L 4.21875 -6.109375 L 4.21875 -7.40625 L 3.125 -7.40625 L 3.125 -9.4375 L 1.15625 -9.4375 L 1.15625 -7.40625 L 0.203125 -7.40625 L 0.203125 -6.109375 L 1.15625 -6.109375 L 1.15625 -1.625 C 1.15625 -0.4375 1.796875 0.0625 3.078125 0.0625 C 3.515625 0.0625 3.859375 0.015625 4.21875 0 Z M 4.21875 0 "/>
</symbol>
<symbol overflow="visible" id="glyph3-10">
<path style="stroke:none;" d="M 3 0 L 3 -2.046875 L 0.890625 -2.046875 L 0.890625 0 Z M 3 0 "/>
</symbol>
<symbol overflow="visible" id="glyph3-11">
<path style="stroke:none;" d="M 10.859375 0 L 10.859375 -10.203125 L 7.703125 -10.203125 L 5.90625 -2.09375 L 4.0625 -10.203125 L 0.921875 -10.203125 L 0.921875 0 L 3.03125 0 L 3.03125 -7.953125 L 4.859375 0 L 6.953125 0 L 8.765625 -7.953125 L 8.765625 0 Z M 10.859375 0 "/>
</symbol>
<symbol overflow="visible" id="glyph3-12">
<path style="stroke:none;" d="M 9.953125 0 L 9.953125 -5.484375 L 5.859375 -5.484375 L 5.859375 -3.734375 L 8.1875 -3.734375 C 8.046875 -2.46875 6.84375 -1.625 5.59375 -1.625 C 3.90625 -1.625 2.6875 -3.03125 2.6875 -5.140625 C 2.6875 -7.34375 3.765625 -8.578125 5.546875 -8.578125 C 6.6875 -8.578125 7.578125 -8.140625 7.984375 -6.9375 L 9.953125 -6.9375 C 9.703125 -9.046875 8 -10.375 5.53125 -10.375 C 2.59375 -10.375 0.59375 -8.28125 0.59375 -5.109375 C 0.59375 -2.015625 2.609375 0.171875 5.359375 0.171875 C 6.734375 0.171875 7.65625 -0.328125 8.4375 -1.40625 L 8.6875 0 Z M 9.953125 0 "/>
</symbol>
<symbol overflow="visible" id="glyph3-13">
<path style="stroke:none;" d="M 13.046875 -10.203125 L 10.828125 -10.203125 L 9.296875 -2.546875 L 7.640625 -10.203125 L 5.578125 -10.203125 L 3.984375 -2.5625 L 2.40625 -10.203125 L 0.1875 -10.203125 L 3.0625 0 L 4.953125 0 L 6.625 -7.96875 L 8.328125 0 L 10.21875 0 Z M 13.046875 -10.203125 "/>
</symbol>
<symbol overflow="visible" id="glyph3-14">
<path style="stroke:none;" d="M 9.328125 -2.9375 C 9.328125 -3.953125 8.78125 -4.75 7.625 -5.421875 C 8.640625 -6.0625 9.03125 -6.65625 9.03125 -7.515625 C 9.03125 -8.953125 7.828125 -10.203125 5.703125 -10.203125 L 1.140625 -10.203125 L 1.140625 0 L 5.734375 0 C 8.125 0 9.328125 -1.265625 9.328125 -2.9375 Z M 7.015625 -7.296875 C 7.015625 -6.546875 6.5 -6.140625 5.53125 -6.140625 L 3.25 -6.140625 L 3.25 -8.453125 L 5.53125 -8.453125 C 6.5 -8.453125 7.015625 -8.046875 7.015625 -7.296875 Z M 7.3125 -3.0625 C 7.3125 -2.21875 6.78125 -1.75 5.75 -1.75 L 3.25 -1.75 L 3.25 -4.390625 L 5.75 -4.390625 C 6.78125 -4.390625 7.3125 -3.9375 7.3125 -3.0625 Z M 7.3125 -3.0625 "/>
</symbol>
<symbol overflow="visible" id="glyph3-15">
<path style="stroke:none;" d="M 8.859375 -3.0625 C 8.859375 -4.671875 8.046875 -5.4375 6.15625 -5.796875 L 4.5625 -6.109375 C 3.0625 -6.390625 2.625 -6.6875 2.625 -7.4375 C 2.625 -8.203125 3.3125 -8.6875 4.390625 -8.6875 C 5.71875 -8.6875 6.53125 -8.140625 6.53125 -7.09375 L 8.5 -7.09375 C 8.5 -9.25 6.984375 -10.375 4.5 -10.375 C 2.046875 -10.375 0.625 -9.21875 0.625 -7.234375 C 0.625 -5.640625 1.421875 -4.90625 3.5 -4.5 L 4.921875 -4.21875 C 6.328125 -3.9375 6.84375 -3.640625 6.84375 -2.8125 C 6.84375 -1.953125 6.0625 -1.515625 4.78125 -1.515625 C 3.359375 -1.515625 2.484375 -2.109375 2.484375 -3.203125 L 0.453125 -3.203125 C 0.453125 -1.015625 2.078125 0.171875 4.671875 0.171875 C 7.3125 0.171875 8.859375 -1 8.859375 -3.0625 Z M 8.859375 -3.0625 "/>
</symbol>
<symbol overflow="visible" id="glyph3-16">
<path style="stroke:none;" d="M 4.171875 -2.890625 L 4.171875 -4.78125 L 0.359375 -4.78125 L 0.359375 -2.890625 Z M 4.171875 -2.890625 "/>
</symbol>
<symbol overflow="visible" id="glyph3-17">
<path style="stroke:none;" d="M 9.59375 -3.484375 L 7.546875 -3.484375 C 7.421875 -2.1875 6.59375 -1.59375 5.296875 -1.59375 C 3.671875 -1.59375 2.71875 -2.84375 2.71875 -5.0625 C 2.71875 -7.328125 3.703125 -8.578125 5.359375 -8.578125 C 6.5 -8.578125 7.234375 -8.0625 7.546875 -6.75 L 9.546875 -6.75 C 9.359375 -9.09375 7.59375 -10.375 5.296875 -10.375 C 2.40625 -10.375 0.609375 -8.40625 0.609375 -5.09375 C 0.609375 -1.8125 2.390625 0.171875 5.234375 0.171875 C 7.765625 0.171875 9.46875 -1.140625 9.59375 -3.484375 Z M 9.59375 -3.484375 "/>
</symbol>
<symbol overflow="visible" id="glyph3-18">
<path style="stroke:none;" d="M 7.34375 0 L 7.34375 -0.234375 C 6.984375 -0.5625 6.890625 -0.765625 6.890625 -1.15625 L 6.890625 -5.359375 C 6.890625 -6.90625 5.84375 -7.6875 3.796875 -7.6875 C 1.75 -7.6875 0.6875 -6.8125 0.5625 -5.0625 L 2.453125 -5.0625 C 2.546875 -5.859375 2.875 -6.109375 3.84375 -6.109375 C 4.59375 -6.109375 4.96875 -5.859375 4.96875 -5.34375 C 4.96875 -4.546875 4.375 -4.640625 3.40625 -4.46875 L 2.625 -4.328125 C 1.125 -4.0625 0.390625 -3.421875 0.390625 -2.046875 C 0.390625 -0.578125 1.421875 0.125 2.6875 0.125 C 3.53125 0.125 4.296875 -0.234375 4.984375 -0.953125 C 4.984375 -0.5625 5.03125 -0.21875 5.203125 0 Z M 4.96875 -3.234375 C 4.96875 -2.09375 4.40625 -1.453125 3.421875 -1.453125 C 2.765625 -1.453125 2.359375 -1.703125 2.359375 -2.265625 C 2.359375 -2.84375 2.65625 -3.046875 3.46875 -3.203125 L 4.140625 -3.328125 C 4.65625 -3.4375 4.75 -3.453125 4.96875 -3.5625 Z M 4.96875 -3.234375 "/>
</symbol>
<symbol overflow="visible" id="glyph3-19">
<path style="stroke:none;" d="M 7.640625 0 L 7.640625 -5.0625 C 7.640625 -6.734375 6.71875 -7.6875 5.109375 -7.6875 C 4.09375 -7.6875 3.40625 -7.3125 2.84375 -6.46875 L 2.84375 -7.5625 L 0.875 -7.5625 L 0.875 0 L 2.84375 0 L 2.84375 -4.53125 C 2.84375 -5.4375 3.46875 -6.015625 4.421875 -6.015625 C 5.265625 -6.015625 5.6875 -5.5625 5.6875 -4.65625 L 5.6875 0 Z M 7.640625 0 "/>
</symbol>
<symbol overflow="visible" id="glyph4-0">
<path style="stroke:none;" d=""/>
</symbol>
<symbol overflow="visible" id="glyph4-1">
<path style="stroke:none;" d="M 9.875 0 L 6.328125 -10.234375 L 4 -10.234375 L 0.359375 0 L 2.515625 0 L 3.203125 -2.0625 L 7.03125 -2.0625 L 7.71875 0 Z M 6.46875 -3.828125 L 3.796875 -3.828125 L 5.125 -7.828125 Z M 6.46875 -3.828125 "/>
</symbol>
<symbol overflow="visible" id="glyph4-2">
<path style="stroke:none;" d="M 9.359375 -2.953125 C 9.359375 -3.96875 8.8125 -4.765625 7.65625 -5.4375 C 8.671875 -6.078125 9.0625 -6.671875 9.0625 -7.546875 C 9.0625 -8.984375 7.859375 -10.234375 5.71875 -10.234375 L 1.15625 -10.234375 L 1.15625 0 L 5.765625 0 C 8.140625 0 9.359375 -1.265625 9.359375 -2.953125 Z M 7.03125 -7.3125 C 7.03125 -6.578125 6.515625 -6.171875 5.546875 -6.171875 L 3.265625 -6.171875 L 3.265625 -8.484375 L 5.546875 -8.484375 C 6.515625 -8.484375 7.03125 -8.078125 7.03125 -7.3125 Z M 7.328125 -3.078125 C 7.328125 -2.21875 6.796875 -1.75 5.765625 -1.75 L 3.265625 -1.75 L 3.265625 -4.40625 L 5.765625 -4.40625 C 6.796875 -4.40625 7.328125 -3.953125 7.328125 -3.078125 Z M 7.328125 -3.078125 "/>
</symbol>
<symbol overflow="visible" id="glyph4-3">
<path style="stroke:none;" d="M 9.625 -3.5 L 7.578125 -3.5 C 7.4375 -2.1875 6.609375 -1.59375 5.3125 -1.59375 C 3.6875 -1.59375 2.71875 -2.84375 2.71875 -5.078125 C 2.71875 -7.34375 3.71875 -8.609375 5.375 -8.609375 C 6.515625 -8.609375 7.265625 -8.09375 7.578125 -6.765625 L 9.578125 -6.765625 C 9.390625 -9.125 7.609375 -10.40625 5.3125 -10.40625 C 2.421875 -10.40625 0.625 -8.421875 0.625 -5.109375 C 0.625 -1.828125 2.40625 0.171875 5.25 0.171875 C 7.796875 0.171875 9.5 -1.15625 9.625 -3.5 Z M 9.625 -3.5 "/>
</symbol>
<symbol overflow="visible" id="glyph4-4">
<path style="stroke:none;" d="M 9.5625 -5.125 C 9.5625 -6.703125 9.125 -8.09375 8.3125 -9.0625 C 7.625 -9.890625 6.65625 -10.234375 5.078125 -10.234375 L 1.078125 -10.234375 L 1.078125 0 L 5.078125 0 C 6.640625 0 7.609375 -0.359375 8.3125 -1.1875 C 9.109375 -2.15625 9.5625 -3.546875 9.5625 -5.125 Z M 7.453125 -5.109375 C 7.453125 -2.859375 6.671875 -1.75 5.078125 -1.75 L 3.1875 -1.75 L 3.1875 -8.484375 L 5.078125 -8.484375 C 6.671875 -8.484375 7.453125 -7.375 7.453125 -5.109375 Z M 7.453125 -5.109375 "/>
</symbol>
<symbol overflow="visible" id="glyph4-5">
<path style="stroke:none;" d="M 8.765625 0 L 8.765625 -1.75 L 3.21875 -1.75 L 3.21875 -4.40625 L 8.125 -4.40625 L 8.125 -6.171875 L 3.21875 -6.171875 L 3.21875 -8.484375 L 8.515625 -8.484375 L 8.515625 -10.234375 L 1.109375 -10.234375 L 1.109375 0 Z M 8.765625 0 "/>
</symbol>
<symbol overflow="visible" id="glyph4-6">
<path style="stroke:none;" d="M 8.234375 -8.484375 L 8.234375 -10.234375 L 1.046875 -10.234375 L 1.046875 0 L 3.140625 0 L 3.140625 -4.40625 L 7.625 -4.40625 L 7.625 -6.171875 L 3.140625 -6.171875 L 3.140625 -8.484375 Z M 8.234375 -8.484375 "/>
</symbol>
</g>
</defs>
<g id="surface33303">
<rect x="0" y="0" width="522" height="467" style="fill:rgb(100%,100%,100%);fill-opacity:1;stroke:none;"/>
<path style=" stroke:none;fill-rule:nonzero;fill:rgb(34.901961%,34.901961%,34.901961%);fill-opacity:1;" d="M 65.710938 179.464844 L 111.210938 179.464844 L 111.210938 69.585938 L 65.710938 69.585938 Z M 65.710938 179.464844 "/>
<path style=" stroke:none;fill-rule:nonzero;fill:rgb(34.901961%,34.901961%,34.901961%);fill-opacity:1;" d="M 116.269531 179.464844 L 161.769531 179.464844 L 161.769531 34.671875 L 116.269531 34.671875 Z M 116.269531 179.464844 "/>
<path style="fill:none;stroke-width:1.066978;stroke-linecap:butt;stroke-linejoin:round;stroke:rgb(0%,0%,0%);stroke-opacity:1;stroke-miterlimit:10;" d="M 58.128906 186.703125 L 58.128906 27.433594 "/>
<g style="fill:rgb(0%,0%,0%);fill-opacity:1;">
  <use xlink:href="#glyph0-1" x="44.652344" y="183.737305"/>
</g>
<g style="fill:rgb(0%,0%,0%);fill-opacity:1;">
  <use xlink:href="#glyph0-2" x="37.652344" y="132.389648"/>
  <use xlink:href="#glyph0-1" x="44.324219" y="132.389648"/>
</g>
<g style="fill:rgb(0%,0%,0%);fill-opacity:1;">
  <use xlink:href="#glyph0-3" x="30.652344" y="81.045898"/>
  <use xlink:href="#glyph0-1" x="37.324219" y="81.045898"/>
  <use xlink:href="#glyph0-1" x="43.996094" y="81.045898"/>
</g>
<path style="fill:none;stroke-width:1.066978;stroke-linecap:butt;stroke-linejoin:round;stroke:rgb(0%,0%,0%);stroke-opacity:1;stroke-miterlimit:10;" d="M 54.640625 179.464844 L 58.128906 179.464844 "/>
<path style="fill:none;stroke-width:1.066978;stroke-linecap:butt;stroke-linejoin:round;stroke:rgb(0%,0%,0%);stroke-opacity:1;stroke-miterlimit:10;" d="M 54.640625 128.117188 L 58.128906 128.117188 "/>
<path style="fill:none;stroke-width:1.066978;stroke-linecap:butt;stroke-linejoin:round;stroke:rgb(0%,0%,0%);stroke-opacity:1;stroke-miterlimit:10;" d="M 54.640625 76.773438 L 58.128906 76.773438 "/>
<path style="fill:none;stroke-width:1.066978;stroke-linecap:butt;stroke-linejoin:round;stroke:rgb(0%,0%,0%);stroke-opacity:1;stroke-miterlimit:10;" d="M 58.128906 186.703125 L 169.351562 186.703125 "/>
<path style="fill:none;stroke-width:1.066978;stroke-linecap:butt;stroke-linejoin:round;stroke:rgb(0%,0%,0%);stroke-opacity:1;stroke-miterlimit:10;" d="M 88.460938 190.191406 L 88.460938 186.703125 "/>
<path style="fill:none;stroke-width:1.066978;stroke-linecap:butt;stroke-linejoin:round;stroke:rgb(0%,0%,0%);stroke-opacity:1;stroke-miterlimit:10;" d="M 139.015625 190.191406 L 139.015625 186.703125 "/>
<g style="fill:rgb(0%,0%,0%);fill-opacity:1;">
  <use xlink:href="#glyph0-4" x="83.960938" y="201.952148"/>
</g>
<g style="fill:rgb(0%,0%,0%);fill-opacity:1;">
  <use xlink:href="#glyph0-5" x="134.515625" y="201.952148"/>
</g>
<g style="fill:rgb(0%,0%,0%);fill-opacity:1;">
  <use xlink:href="#glyph1-1" x="85.238281" y="219.544922"/>
  <use xlink:href="#glyph1-2" x="92.532227" y="219.544922"/>
  <use xlink:href="#glyph1-3" x="100.316406" y="219.544922"/>
  <use xlink:href="#glyph1-2" x="108.100586" y="219.544922"/>
  <use xlink:href="#glyph1-4" x="115.884766" y="219.544922"/>
  <use xlink:href="#glyph1-2" x="118.993164" y="219.544922"/>
  <use xlink:href="#glyph1-5" x="126.777344" y="219.544922"/>
  <use xlink:href="#glyph1-6" x="134.561523" y="219.544922"/>
</g>
<g style="fill:rgb(0%,0%,0%);fill-opacity:1;">
  <use xlink:href="#glyph2-1" x="23.634766" y="145.066406"/>
  <use xlink:href="#glyph2-2" x="23.634766" y="134.174805"/>
  <use xlink:href="#glyph2-3" x="23.634766" y="126.390625"/>
  <use xlink:href="#glyph2-2" x="23.634766" y="118.606445"/>
  <use xlink:href="#glyph2-4" x="23.634766" y="110.822266"/>
  <use xlink:href="#glyph2-5" x="23.634766" y="106.930664"/>
  <use xlink:href="#glyph2-6" x="23.634766" y="96.822266"/>
  <use xlink:href="#glyph2-7" x="23.634766" y="89.038086"/>
  <use xlink:href="#glyph2-3" x="23.634766" y="81.253906"/>
  <use xlink:href="#glyph2-8" x="23.634766" y="73.469727"/>
</g>
<g style="fill:rgb(0%,0%,0%);fill-opacity:1;">
  <use xlink:href="#glyph3-1" x="64.238281" y="18.964844"/>
  <use xlink:href="#glyph3-2" x="71.742188" y="18.964844"/>
  <use xlink:href="#glyph3-3" x="82.494141" y="18.964844"/>
  <use xlink:href="#glyph3-4" x="91.047852" y="18.964844"/>
  <use xlink:href="#glyph3-1" x="94.939453" y="18.964844"/>
  <use xlink:href="#glyph3-3" x="102.443359" y="18.964844"/>
  <use xlink:href="#glyph3-5" x="110.99707" y="18.964844"/>
  <use xlink:href="#glyph3-3" x="119.550781" y="18.964844"/>
  <use xlink:href="#glyph3-4" x="128.104492" y="18.964844"/>
  <use xlink:href="#glyph3-6" x="131.996094" y="18.964844"/>
  <use xlink:href="#glyph3-7" x="140.704102" y="18.964844"/>
  <use xlink:href="#glyph3-8" x="148.488281" y="18.964844"/>
  <use xlink:href="#glyph3-9" x="154.214844" y="18.964844"/>
  <use xlink:href="#glyph3-10" x="158.876953" y="18.964844"/>
</g>
<g style="fill:rgb(0%,0%,0%);fill-opacity:1;">
  <use xlink:href="#glyph4-1" x="8.988281" y="16.308594"/>
</g>
<path style=" stroke:none;fill-rule:nonzero;fill:rgb(34.901961%,34.901961%,34.901961%);fill-opacity:1;" d="M 236.179688 179.507812 L 267.460938 179.507812 L 267.460938 93.277344 L 236.179688 93.277344 Z M 236.179688 179.507812 "/>
<path style=" stroke:none;fill-rule:nonzero;fill:rgb(34.901961%,34.901961%,34.901961%);fill-opacity:1;" d="M 270.9375 179.507812 L 302.21875 179.507812 L 302.21875 32.523438 L 270.9375 32.523438 Z M 270.9375 179.507812 "/>
<path style=" stroke:none;fill-rule:nonzero;fill:rgb(34.901961%,34.901961%,34.901961%);fill-opacity:1;" d="M 305.695312 179.507812 L 336.976562 179.507812 L 336.976562 169.707031 L 305.695312 169.707031 Z M 305.695312 179.507812 "/>
<path style="fill:none;stroke-width:1.066978;stroke-linecap:butt;stroke-linejoin:round;stroke:rgb(0%,0%,0%);stroke-opacity:1;stroke-miterlimit:10;" d="M 230.964844 186.859375 L 230.964844 25.175781 "/>
<g style="fill:rgb(0%,0%,0%);fill-opacity:1;">
  <use xlink:href="#glyph0-1" x="217.492188" y="183.780273"/>
</g>
<g style="fill:rgb(0%,0%,0%);fill-opacity:1;">
  <use xlink:href="#glyph0-2" x="210.492188" y="134.788086"/>
  <use xlink:href="#glyph0-1" x="217.164062" y="134.788086"/>
</g>
<g style="fill:rgb(0%,0%,0%);fill-opacity:1;">
  <use xlink:href="#glyph0-3" x="203.492188" y="85.791992"/>
  <use xlink:href="#glyph0-1" x="210.164062" y="85.791992"/>
  <use xlink:href="#glyph0-1" x="216.835938" y="85.791992"/>
</g>
<g style="fill:rgb(0%,0%,0%);fill-opacity:1;">
  <use xlink:href="#glyph0-3" x="203.492188" y="36.795898"/>
  <use xlink:href="#glyph0-2" x="210.164062" y="36.795898"/>
  <use xlink:href="#glyph0-1" x="216.835938" y="36.795898"/>
</g>
<path style="fill:none;stroke-width:1.066978;stroke-linecap:butt;stroke-linejoin:round;stroke:rgb(0%,0%,0%);stroke-opacity:1;stroke-miterlimit:10;" d="M 227.480469 179.507812 L 230.964844 179.507812 "/>
<path style="fill:none;stroke-width:1.066978;stroke-linecap:butt;stroke-linejoin:round;stroke:rgb(0%,0%,0%);stroke-opacity:1;stroke-miterlimit:10;" d="M 227.480469 130.515625 L 230.964844 130.515625 "/>
<path style="fill:none;stroke-width:1.066978;stroke-linecap:butt;stroke-linejoin:round;stroke:rgb(0%,0%,0%);stroke-opacity:1;stroke-miterlimit:10;" d="M 227.480469 81.519531 L 230.964844 81.519531 "/>
<path style="fill:none;stroke-width:1.066978;stroke-linecap:butt;stroke-linejoin:round;stroke:rgb(0%,0%,0%);stroke-opacity:1;stroke-miterlimit:10;" d="M 227.480469 32.523438 L 230.964844 32.523438 "/>
<path style="fill:none;stroke-width:1.066978;stroke-linecap:butt;stroke-linejoin:round;stroke:rgb(0%,0%,0%);stroke-opacity:1;stroke-miterlimit:10;" d="M 230.964844 186.859375 L 342.1875 186.859375 "/>
<path style="fill:none;stroke-width:1.066978;stroke-linecap:butt;stroke-linejoin:round;stroke:rgb(0%,0%,0%);stroke-opacity:1;stroke-miterlimit:10;" d="M 251.820312 190.34375 L 251.820312 186.859375 "/>
<path style="fill:none;stroke-width:1.066978;stroke-linecap:butt;stroke-linejoin:round;stroke:rgb(0%,0%,0%);stroke-opacity:1;stroke-miterlimit:10;" d="M 286.578125 190.34375 L 286.578125 186.859375 "/>
<path style="fill:none;stroke-width:1.066978;stroke-linecap:butt;stroke-linejoin:round;stroke:rgb(0%,0%,0%);stroke-opacity:1;stroke-miterlimit:10;" d="M 321.335938 190.34375 L 321.335938 186.859375 "/>
<g style="fill:rgb(0%,0%,0%);fill-opacity:1;">
  <use xlink:href="#glyph0-4" x="247.320312" y="202.104492"/>
</g>
<g style="fill:rgb(0%,0%,0%);fill-opacity:1;">
  <use xlink:href="#glyph0-5" x="282.078125" y="202.104492"/>
</g>
<g style="fill:rgb(0%,0%,0%);fill-opacity:1;">
  <use xlink:href="#glyph0-6" x="312.835938" y="202.104492"/>
  <use xlink:href="#glyph0-7" x="321.019531" y="202.104492"/>
</g>
<g style="fill:rgb(0%,0%,0%);fill-opacity:1;">
  <use xlink:href="#glyph1-7" x="255.078125" y="219.623047"/>
  <use xlink:href="#glyph1-8" x="264.416016" y="219.623047"/>
  <use xlink:href="#glyph1-3" x="267.524414" y="219.623047"/>
  <use xlink:href="#glyph1-9" x="275.308594" y="219.623047"/>
  <use xlink:href="#glyph1-10" x="283.092773" y="219.623047"/>
  <use xlink:href="#glyph1-11" x="288.174805" y="219.623047"/>
  <use xlink:href="#glyph1-8" x="292.066406" y="219.623047"/>
  <use xlink:href="#glyph1-11" x="295.174805" y="219.623047"/>
  <use xlink:href="#glyph1-8" x="299.066406" y="219.623047"/>
  <use xlink:href="#glyph1-2" x="302.174805" y="219.623047"/>
  <use xlink:href="#glyph1-12" x="309.958984" y="219.623047"/>
</g>
<g style="fill:rgb(0%,0%,0%);fill-opacity:1;">
  <use xlink:href="#glyph2-1" x="196.474609" y="144.015625"/>
  <use xlink:href="#glyph2-2" x="196.474609" y="133.124023"/>
  <use xlink:href="#glyph2-3" x="196.474609" y="125.339844"/>
  <use xlink:href="#glyph2-2" x="196.474609" y="117.555664"/>
  <use xlink:href="#glyph2-4" x="196.474609" y="109.771484"/>
  <use xlink:href="#glyph2-5" x="196.474609" y="105.879883"/>
  <use xlink:href="#glyph2-6" x="196.474609" y="95.771484"/>
  <use xlink:href="#glyph2-7" x="196.474609" y="87.987305"/>
  <use xlink:href="#glyph2-3" x="196.474609" y="80.203125"/>
  <use xlink:href="#glyph2-8" x="196.474609" y="72.418945"/>
</g>
<g style="fill:rgb(0%,0%,0%);fill-opacity:1;">
  <use xlink:href="#glyph3-11" x="246.078125" y="17.835938"/>
  <use xlink:href="#glyph3-12" x="257.740234" y="17.835938"/>
  <use xlink:href="#glyph3-13" x="268.351562" y="17.835938"/>
  <use xlink:href="#glyph3-14" x="281.567383" y="17.835938"/>
  <use xlink:href="#glyph3-4" x="291.675781" y="17.835938"/>
  <use xlink:href="#glyph3-6" x="295.567383" y="17.835938"/>
  <use xlink:href="#glyph3-7" x="304.275391" y="17.835938"/>
  <use xlink:href="#glyph3-8" x="312.05957" y="17.835938"/>
  <use xlink:href="#glyph3-9" x="317.786133" y="17.835938"/>
  <use xlink:href="#glyph3-10" x="322.448242" y="17.835938"/>
</g>
<g style="fill:rgb(0%,0%,0%);fill-opacity:1;">
  <use xlink:href="#glyph4-2" x="181.824219" y="16.308594"/>
</g>
<path style=" stroke:none;fill-rule:nonzero;fill:rgb(34.901961%,34.901961%,34.901961%);fill-opacity:1;" d="M 421.410156 179.507812 L 449.035156 179.507812 L 449.035156 55.003906 L 421.410156 55.003906 Z M 421.410156 179.507812 "/>
<path style=" stroke:none;fill-rule:nonzero;fill:rgb(34.901961%,34.901961%,34.901961%);fill-opacity:1;" d="M 452.101562 179.507812 L 479.726562 179.507812 L 479.726562 32.523438 L 452.101562 32.523438 Z M 452.101562 179.507812 "/>
<path style=" stroke:none;fill-rule:nonzero;fill:rgb(34.901961%,34.901961%,34.901961%);fill-opacity:1;" d="M 482.796875 179.507812 L 510.421875 179.507812 L 510.421875 147.769531 L 482.796875 147.769531 Z M 482.796875 179.507812 "/>
<path style="fill:none;stroke-width:1.066978;stroke-linecap:butt;stroke-linejoin:round;stroke:rgb(0%,0%,0%);stroke-opacity:1;stroke-miterlimit:10;" d="M 416.804688 186.859375 L 416.804688 25.175781 "/>
<g style="fill:rgb(0%,0%,0%);fill-opacity:1;">
  <use xlink:href="#glyph0-1" x="403.328125" y="183.780273"/>
</g>
<g style="fill:rgb(0%,0%,0%);fill-opacity:1;">
  <use xlink:href="#glyph0-8" x="376.328125" y="143.249023"/>
  <use xlink:href="#glyph0-2" x="383" y="143.249023"/>
  <use xlink:href="#glyph0-1" x="389.671875" y="143.249023"/>
  <use xlink:href="#glyph0-1" x="396.34375" y="143.249023"/>
  <use xlink:href="#glyph0-1" x="403.015625" y="143.249023"/>
</g>
<g style="fill:rgb(0%,0%,0%);fill-opacity:1;">
  <use xlink:href="#glyph0-2" x="376.328125" y="102.717773"/>
  <use xlink:href="#glyph0-1" x="383" y="102.717773"/>
  <use xlink:href="#glyph0-1" x="389.671875" y="102.717773"/>
  <use xlink:href="#glyph0-1" x="396.34375" y="102.717773"/>
  <use xlink:href="#glyph0-1" x="403.015625" y="102.717773"/>
</g>
<g style="fill:rgb(0%,0%,0%);fill-opacity:1;">
  <use xlink:href="#glyph0-9" x="376.328125" y="62.186523"/>
  <use xlink:href="#glyph0-2" x="383" y="62.186523"/>
  <use xlink:href="#glyph0-1" x="389.671875" y="62.186523"/>
  <use xlink:href="#glyph0-1" x="396.34375" y="62.186523"/>
  <use xlink:href="#glyph0-1" x="403.015625" y="62.186523"/>
</g>
<path style="fill:none;stroke-width:1.066978;stroke-linecap:butt;stroke-linejoin:round;stroke:rgb(0%,0%,0%);stroke-opacity:1;stroke-miterlimit:10;" d="M 413.316406 179.507812 L 416.804688 179.507812 "/>
<path style="fill:none;stroke-width:1.066978;stroke-linecap:butt;stroke-linejoin:round;stroke:rgb(0%,0%,0%);stroke-opacity:1;stroke-miterlimit:10;" d="M 413.316406 138.976562 L 416.804688 138.976562 "/>
<path style="fill:none;stroke-width:1.066978;stroke-linecap:butt;stroke-linejoin:round;stroke:rgb(0%,0%,0%);stroke-opacity:1;stroke-miterlimit:10;" d="M 413.316406 98.445312 L 416.804688 98.445312 "/>
<path style="fill:none;stroke-width:1.066978;stroke-linecap:butt;stroke-linejoin:round;stroke:rgb(0%,0%,0%);stroke-opacity:1;stroke-miterlimit:10;" d="M 413.316406 57.914062 L 416.804688 57.914062 "/>
<path style="fill:none;stroke-width:1.066978;stroke-linecap:butt;stroke-linejoin:round;stroke:rgb(0%,0%,0%);stroke-opacity:1;stroke-miterlimit:10;" d="M 416.804688 186.859375 L 515.027344 186.859375 "/>
<path style="fill:none;stroke-width:1.066978;stroke-linecap:butt;stroke-linejoin:round;stroke:rgb(0%,0%,0%);stroke-opacity:1;stroke-miterlimit:10;" d="M 435.222656 190.34375 L 435.222656 186.859375 "/>
<path style="fill:none;stroke-width:1.066978;stroke-linecap:butt;stroke-linejoin:round;stroke:rgb(0%,0%,0%);stroke-opacity:1;stroke-miterlimit:10;" d="M 465.914062 190.34375 L 465.914062 186.859375 "/>
<path style="fill:none;stroke-width:1.066978;stroke-linecap:butt;stroke-linejoin:round;stroke:rgb(0%,0%,0%);stroke-opacity:1;stroke-miterlimit:10;" d="M 496.609375 190.34375 L 496.609375 186.859375 "/>
<g style="fill:rgb(0%,0%,0%);fill-opacity:1;">
  <use xlink:href="#glyph0-4" x="430.722656" y="202.104492"/>
</g>
<g style="fill:rgb(0%,0%,0%);fill-opacity:1;">
  <use xlink:href="#glyph0-5" x="461.414062" y="202.104492"/>
</g>
<g style="fill:rgb(0%,0%,0%);fill-opacity:1;">
  <use xlink:href="#glyph0-6" x="488.109375" y="202.104492"/>
  <use xlink:href="#glyph0-7" x="496.292969" y="202.104492"/>
</g>
<g style="fill:rgb(0%,0%,0%);fill-opacity:1;">
  <use xlink:href="#glyph1-7" x="434.414062" y="219.623047"/>
  <use xlink:href="#glyph1-8" x="443.751953" y="219.623047"/>
  <use xlink:href="#glyph1-3" x="446.860352" y="219.623047"/>
  <use xlink:href="#glyph1-9" x="454.644531" y="219.623047"/>
  <use xlink:href="#glyph1-10" x="462.428711" y="219.623047"/>
  <use xlink:href="#glyph1-11" x="467.510742" y="219.623047"/>
  <use xlink:href="#glyph1-8" x="471.402344" y="219.623047"/>
  <use xlink:href="#glyph1-11" x="474.510742" y="219.623047"/>
  <use xlink:href="#glyph1-8" x="478.402344" y="219.623047"/>
  <use xlink:href="#glyph1-2" x="481.510742" y="219.623047"/>
  <use xlink:href="#glyph1-12" x="489.294922" y="219.623047"/>
</g>
<g style="fill:rgb(0%,0%,0%);fill-opacity:1;">
  <use xlink:href="#glyph2-9" x="369.310547" y="139.015625"/>
  <use xlink:href="#glyph2-10" x="369.310547" y="129.677734"/>
  <use xlink:href="#glyph2-8" x="369.310547" y="126.569336"/>
  <use xlink:href="#glyph2-2" x="369.310547" y="122.887695"/>
  <use xlink:href="#glyph2-4" x="369.310547" y="115.103516"/>
  <use xlink:href="#glyph2-5" x="369.310547" y="111.211914"/>
  <use xlink:href="#glyph2-6" x="369.310547" y="101.103516"/>
  <use xlink:href="#glyph2-7" x="369.310547" y="93.319336"/>
  <use xlink:href="#glyph2-3" x="369.310547" y="85.535156"/>
  <use xlink:href="#glyph2-8" x="369.310547" y="77.750977"/>
</g>
<g style="fill:rgb(0%,0%,0%);fill-opacity:1;">
  <use xlink:href="#glyph3-11" x="426.414062" y="17.835938"/>
  <use xlink:href="#glyph3-15" x="438.076172" y="17.835938"/>
  <use xlink:href="#glyph3-13" x="447.204102" y="17.835938"/>
  <use xlink:href="#glyph3-14" x="460.419922" y="17.835938"/>
  <use xlink:href="#glyph3-4" x="470.52832" y="17.835938"/>
  <use xlink:href="#glyph3-6" x="474.419922" y="17.835938"/>
  <use xlink:href="#glyph3-7" x="483.12793" y="17.835938"/>
  <use xlink:href="#glyph3-8" x="490.912109" y="17.835938"/>
  <use xlink:href="#glyph3-9" x="496.638672" y="17.835938"/>
  <use xlink:href="#glyph3-10" x="501.300781" y="17.835938"/>
</g>
<g style="fill:rgb(0%,0%,0%);fill-opacity:1;">
  <use xlink:href="#glyph4-3" x="354.664062" y="16.308594"/>
</g>
<path style=" stroke:none;fill-rule:nonzero;fill:rgb(34.901961%,34.901961%,34.901961%);fill-opacity:1;" d="M 65.710938 411.21875 L 111.210938 411.21875 L 111.210938 266.425781 L 65.710938 266.425781 Z M 65.710938 411.21875 "/>
<path style=" stroke:none;fill-rule:nonzero;fill:rgb(34.901961%,34.901961%,34.901961%);fill-opacity:1;" d="M 116.269531 411.21875 L 161.769531 411.21875 L 161.769531 268.519531 L 116.269531 268.519531 Z M 116.269531 411.21875 "/>
<path style="fill:none;stroke-width:1.066978;stroke-linecap:butt;stroke-linejoin:round;stroke:rgb(0%,0%,0%);stroke-opacity:1;stroke-miterlimit:10;" d="M 58.128906 418.460938 L 58.128906 259.1875 "/>
<g style="fill:rgb(0%,0%,0%);fill-opacity:1;">
  <use xlink:href="#glyph0-1" x="44.652344" y="415.491211"/>
</g>
<g style="fill:rgb(0%,0%,0%);fill-opacity:1;">
  <use xlink:href="#glyph0-8" x="30.652344" y="369.010742"/>
  <use xlink:href="#glyph0-1" x="37.324219" y="369.010742"/>
  <use xlink:href="#glyph0-1" x="43.996094" y="369.010742"/>
</g>
<g style="fill:rgb(0%,0%,0%);fill-opacity:1;">
  <use xlink:href="#glyph0-10" x="30.652344" y="322.526367"/>
  <use xlink:href="#glyph0-1" x="37.324219" y="322.526367"/>
  <use xlink:href="#glyph0-1" x="43.996094" y="322.526367"/>
</g>
<g style="fill:rgb(0%,0%,0%);fill-opacity:1;">
  <use xlink:href="#glyph0-11" x="30.652344" y="276.045898"/>
  <use xlink:href="#glyph0-1" x="37.324219" y="276.045898"/>
  <use xlink:href="#glyph0-1" x="43.996094" y="276.045898"/>
</g>
<path style="fill:none;stroke-width:1.066978;stroke-linecap:butt;stroke-linejoin:round;stroke:rgb(0%,0%,0%);stroke-opacity:1;stroke-miterlimit:10;" d="M 54.640625 411.21875 L 58.128906 411.21875 "/>
<path style="fill:none;stroke-width:1.066978;stroke-linecap:butt;stroke-linejoin:round;stroke:rgb(0%,0%,0%);stroke-opacity:1;stroke-miterlimit:10;" d="M 54.640625 364.738281 L 58.128906 364.738281 "/>
<path style="fill:none;stroke-width:1.066978;stroke-linecap:butt;stroke-linejoin:round;stroke:rgb(0%,0%,0%);stroke-opacity:1;stroke-miterlimit:10;" d="M 54.640625 318.253906 L 58.128906 318.253906 "/>
<path style="fill:none;stroke-width:1.066978;stroke-linecap:butt;stroke-linejoin:round;stroke:rgb(0%,0%,0%);stroke-opacity:1;stroke-miterlimit:10;" d="M 54.640625 271.773438 L 58.128906 271.773438 "/>
<path style="fill:none;stroke-width:1.066978;stroke-linecap:butt;stroke-linejoin:round;stroke:rgb(0%,0%,0%);stroke-opacity:1;stroke-miterlimit:10;" d="M 58.128906 418.460938 L 169.351562 418.460938 "/>
<path style="fill:none;stroke-width:1.066978;stroke-linecap:butt;stroke-linejoin:round;stroke:rgb(0%,0%,0%);stroke-opacity:1;stroke-miterlimit:10;" d="M 88.460938 421.945312 L 88.460938 418.460938 "/>
<path style="fill:none;stroke-width:1.066978;stroke-linecap:butt;stroke-linejoin:round;stroke:rgb(0%,0%,0%);stroke-opacity:1;stroke-miterlimit:10;" d="M 139.015625 421.945312 L 139.015625 418.460938 "/>
<g style="fill:rgb(0%,0%,0%);fill-opacity:1;">
  <use xlink:href="#glyph0-4" x="83.960938" y="433.706055"/>
</g>
<g style="fill:rgb(0%,0%,0%);fill-opacity:1;">
  <use xlink:href="#glyph0-5" x="134.515625" y="433.706055"/>
</g>
<g style="fill:rgb(0%,0%,0%);fill-opacity:1;">
  <use xlink:href="#glyph1-1" x="85.238281" y="451.302734"/>
  <use xlink:href="#glyph1-2" x="92.532227" y="451.302734"/>
  <use xlink:href="#glyph1-3" x="100.316406" y="451.302734"/>
  <use xlink:href="#glyph1-2" x="108.100586" y="451.302734"/>
  <use xlink:href="#glyph1-4" x="115.884766" y="451.302734"/>
  <use xlink:href="#glyph1-2" x="118.993164" y="451.302734"/>
  <use xlink:href="#glyph1-5" x="126.777344" y="451.302734"/>
  <use xlink:href="#glyph1-6" x="134.561523" y="451.302734"/>
</g>
<g style="fill:rgb(0%,0%,0%);fill-opacity:1;">
  <use xlink:href="#glyph2-1" x="23.634766" y="376.824219"/>
  <use xlink:href="#glyph2-2" x="23.634766" y="365.932617"/>
  <use xlink:href="#glyph2-3" x="23.634766" y="358.148438"/>
  <use xlink:href="#glyph2-2" x="23.634766" y="350.364258"/>
  <use xlink:href="#glyph2-4" x="23.634766" y="342.580078"/>
  <use xlink:href="#glyph2-5" x="23.634766" y="338.688477"/>
  <use xlink:href="#glyph2-6" x="23.634766" y="328.580078"/>
  <use xlink:href="#glyph2-7" x="23.634766" y="320.795898"/>
  <use xlink:href="#glyph2-3" x="23.634766" y="313.011719"/>
  <use xlink:href="#glyph2-8" x="23.634766" y="305.227539"/>
</g>
<g style="fill:rgb(0%,0%,0%);fill-opacity:1;">
  <use xlink:href="#glyph3-1" x="61.738281" y="250.722656"/>
  <use xlink:href="#glyph3-2" x="69.242188" y="250.722656"/>
  <use xlink:href="#glyph3-3" x="79.994141" y="250.722656"/>
  <use xlink:href="#glyph3-16" x="88.547852" y="250.722656"/>
  <use xlink:href="#glyph3-1" x="92.44043" y="250.722656"/>
  <use xlink:href="#glyph3-3" x="99.944336" y="250.722656"/>
  <use xlink:href="#glyph3-5" x="108.498047" y="250.722656"/>
  <use xlink:href="#glyph3-3" x="117.051758" y="250.722656"/>
  <use xlink:href="#glyph3-4" x="125.605469" y="250.722656"/>
  <use xlink:href="#glyph3-17" x="129.49707" y="250.722656"/>
  <use xlink:href="#glyph3-18" x="139.605469" y="250.722656"/>
  <use xlink:href="#glyph3-8" x="147.389648" y="250.722656"/>
  <use xlink:href="#glyph3-19" x="152.835938" y="250.722656"/>
  <use xlink:href="#glyph3-10" x="161.389648" y="250.722656"/>
</g>
<g style="fill:rgb(0%,0%,0%);fill-opacity:1;">
  <use xlink:href="#glyph4-4" x="8.988281" y="248.066406"/>
</g>
<path style=" stroke:none;fill-rule:nonzero;fill:rgb(34.901961%,34.901961%,34.901961%);fill-opacity:1;" d="M 236.179688 411.265625 L 267.460938 411.265625 L 267.460938 264.28125 L 236.179688 264.28125 Z M 236.179688 411.265625 "/>
<path style=" stroke:none;fill-rule:nonzero;fill:rgb(34.901961%,34.901961%,34.901961%);fill-opacity:1;" d="M 270.9375 411.265625 L 302.21875 411.265625 L 302.21875 264.867188 L 270.9375 264.867188 Z M 270.9375 411.265625 "/>
<path style=" stroke:none;fill-rule:nonzero;fill:rgb(34.901961%,34.901961%,34.901961%);fill-opacity:1;" d="M 305.695312 411.265625 L 336.976562 411.265625 L 336.976562 355.117188 L 305.695312 355.117188 Z M 305.695312 411.265625 "/>
<path style="fill:none;stroke-width:1.066978;stroke-linecap:butt;stroke-linejoin:round;stroke:rgb(0%,0%,0%);stroke-opacity:1;stroke-miterlimit:10;" d="M 230.964844 418.613281 L 230.964844 256.933594 "/>
<g style="fill:rgb(0%,0%,0%);fill-opacity:1;">
  <use xlink:href="#glyph0-1" x="217.492188" y="415.538086"/>
</g>
<g style="fill:rgb(0%,0%,0%);fill-opacity:1;">
  <use xlink:href="#glyph0-3" x="203.492188" y="386.139648"/>
  <use xlink:href="#glyph0-1" x="210.164062" y="386.139648"/>
  <use xlink:href="#glyph0-1" x="216.835938" y="386.139648"/>
</g>
<g style="fill:rgb(0%,0%,0%);fill-opacity:1;">
  <use xlink:href="#glyph0-8" x="203.492188" y="356.745117"/>
  <use xlink:href="#glyph0-1" x="210.164062" y="356.745117"/>
  <use xlink:href="#glyph0-1" x="216.835938" y="356.745117"/>
</g>
<g style="fill:rgb(0%,0%,0%);fill-opacity:1;">
  <use xlink:href="#glyph0-12" x="203.492188" y="327.34668"/>
  <use xlink:href="#glyph0-1" x="210.164062" y="327.34668"/>
  <use xlink:href="#glyph0-1" x="216.835938" y="327.34668"/>
</g>
<g style="fill:rgb(0%,0%,0%);fill-opacity:1;">
  <use xlink:href="#glyph0-10" x="203.492188" y="297.952148"/>
  <use xlink:href="#glyph0-1" x="210.164062" y="297.952148"/>
  <use xlink:href="#glyph0-1" x="216.835938" y="297.952148"/>
</g>
<g style="fill:rgb(0%,0%,0%);fill-opacity:1;">
  <use xlink:href="#glyph0-2" x="203.492188" y="268.553711"/>
  <use xlink:href="#glyph0-1" x="210.164062" y="268.553711"/>
  <use xlink:href="#glyph0-1" x="216.835938" y="268.553711"/>
</g>
<path style="fill:none;stroke-width:1.066978;stroke-linecap:butt;stroke-linejoin:round;stroke:rgb(0%,0%,0%);stroke-opacity:1;stroke-miterlimit:10;" d="M 227.480469 411.265625 L 230.964844 411.265625 "/>
<path style="fill:none;stroke-width:1.066978;stroke-linecap:butt;stroke-linejoin:round;stroke:rgb(0%,0%,0%);stroke-opacity:1;stroke-miterlimit:10;" d="M 227.480469 381.867188 L 230.964844 381.867188 "/>
<path style="fill:none;stroke-width:1.066978;stroke-linecap:butt;stroke-linejoin:round;stroke:rgb(0%,0%,0%);stroke-opacity:1;stroke-miterlimit:10;" d="M 227.480469 352.472656 L 230.964844 352.472656 "/>
<path style="fill:none;stroke-width:1.066978;stroke-linecap:butt;stroke-linejoin:round;stroke:rgb(0%,0%,0%);stroke-opacity:1;stroke-miterlimit:10;" d="M 227.480469 323.074219 L 230.964844 323.074219 "/>
<path style="fill:none;stroke-width:1.066978;stroke-linecap:butt;stroke-linejoin:round;stroke:rgb(0%,0%,0%);stroke-opacity:1;stroke-miterlimit:10;" d="M 227.480469 293.679688 L 230.964844 293.679688 "/>
<path style="fill:none;stroke-width:1.066978;stroke-linecap:butt;stroke-linejoin:round;stroke:rgb(0%,0%,0%);stroke-opacity:1;stroke-miterlimit:10;" d="M 227.480469 264.28125 L 230.964844 264.28125 "/>
<path style="fill:none;stroke-width:1.066978;stroke-linecap:butt;stroke-linejoin:round;stroke:rgb(0%,0%,0%);stroke-opacity:1;stroke-miterlimit:10;" d="M 230.964844 418.613281 L 342.1875 418.613281 "/>
<path style="fill:none;stroke-width:1.066978;stroke-linecap:butt;stroke-linejoin:round;stroke:rgb(0%,0%,0%);stroke-opacity:1;stroke-miterlimit:10;" d="M 251.820312 422.101562 L 251.820312 418.613281 "/>
<path style="fill:none;stroke-width:1.066978;stroke-linecap:butt;stroke-linejoin:round;stroke:rgb(0%,0%,0%);stroke-opacity:1;stroke-miterlimit:10;" d="M 286.578125 422.101562 L 286.578125 418.613281 "/>
<path style="fill:none;stroke-width:1.066978;stroke-linecap:butt;stroke-linejoin:round;stroke:rgb(0%,0%,0%);stroke-opacity:1;stroke-miterlimit:10;" d="M 321.335938 422.101562 L 321.335938 418.613281 "/>
<g style="fill:rgb(0%,0%,0%);fill-opacity:1;">
  <use xlink:href="#glyph0-4" x="247.320312" y="433.862305"/>
</g>
<g style="fill:rgb(0%,0%,0%);fill-opacity:1;">
  <use xlink:href="#glyph0-5" x="282.078125" y="433.862305"/>
</g>
<g style="fill:rgb(0%,0%,0%);fill-opacity:1;">
  <use xlink:href="#glyph0-6" x="312.835938" y="433.862305"/>
  <use xlink:href="#glyph0-7" x="321.019531" y="433.862305"/>
</g>
<g style="fill:rgb(0%,0%,0%);fill-opacity:1;">
  <use xlink:href="#glyph1-7" x="255.078125" y="451.380859"/>
  <use xlink:href="#glyph1-8" x="264.416016" y="451.380859"/>
  <use xlink:href="#glyph1-3" x="267.524414" y="451.380859"/>
  <use xlink:href="#glyph1-9" x="275.308594" y="451.380859"/>
  <use xlink:href="#glyph1-10" x="283.092773" y="451.380859"/>
  <use xlink:href="#glyph1-11" x="288.174805" y="451.380859"/>
  <use xlink:href="#glyph1-8" x="292.066406" y="451.380859"/>
  <use xlink:href="#glyph1-11" x="295.174805" y="451.380859"/>
  <use xlink:href="#glyph1-8" x="299.066406" y="451.380859"/>
  <use xlink:href="#glyph1-2" x="302.174805" y="451.380859"/>
  <use xlink:href="#glyph1-12" x="309.958984" y="451.380859"/>
</g>
<g style="fill:rgb(0%,0%,0%);fill-opacity:1;">
  <use xlink:href="#glyph2-1" x="196.474609" y="375.773438"/>
  <use xlink:href="#glyph2-2" x="196.474609" y="364.881836"/>
  <use xlink:href="#glyph2-3" x="196.474609" y="357.097656"/>
  <use xlink:href="#glyph2-2" x="196.474609" y="349.313477"/>
  <use xlink:href="#glyph2-4" x="196.474609" y="341.529297"/>
  <use xlink:href="#glyph2-5" x="196.474609" y="337.637695"/>
  <use xlink:href="#glyph2-6" x="196.474609" y="327.529297"/>
  <use xlink:href="#glyph2-7" x="196.474609" y="319.745117"/>
  <use xlink:href="#glyph2-3" x="196.474609" y="311.960938"/>
  <use xlink:href="#glyph2-8" x="196.474609" y="304.176758"/>
</g>
<g style="fill:rgb(0%,0%,0%);fill-opacity:1;">
  <use xlink:href="#glyph3-11" x="243.578125" y="249.59375"/>
  <use xlink:href="#glyph3-12" x="255.240234" y="249.59375"/>
  <use xlink:href="#glyph3-13" x="265.851562" y="249.59375"/>
  <use xlink:href="#glyph3-14" x="279.067383" y="249.59375"/>
  <use xlink:href="#glyph3-4" x="289.175781" y="249.59375"/>
  <use xlink:href="#glyph3-17" x="293.067383" y="249.59375"/>
  <use xlink:href="#glyph3-18" x="303.175781" y="249.59375"/>
  <use xlink:href="#glyph3-8" x="310.959961" y="249.59375"/>
  <use xlink:href="#glyph3-19" x="316.40625" y="249.59375"/>
  <use xlink:href="#glyph3-10" x="324.959961" y="249.59375"/>
</g>
<g style="fill:rgb(0%,0%,0%);fill-opacity:1;">
  <use xlink:href="#glyph4-5" x="181.324219" y="248.066406"/>
</g>
<path style=" stroke:none;fill-rule:nonzero;fill:rgb(34.901961%,34.901961%,34.901961%);fill-opacity:1;" d="M 421.410156 411.265625 L 449.035156 411.265625 L 449.035156 346.269531 L 421.410156 346.269531 Z M 421.410156 411.265625 "/>
<path style=" stroke:none;fill-rule:nonzero;fill:rgb(34.901961%,34.901961%,34.901961%);fill-opacity:1;" d="M 452.101562 411.265625 L 479.726562 411.265625 L 479.726562 264.28125 L 452.101562 264.28125 Z M 452.101562 411.265625 "/>
<path style=" stroke:none;fill-rule:nonzero;fill:rgb(34.901961%,34.901961%,34.901961%);fill-opacity:1;" d="M 482.796875 411.265625 L 510.421875 411.265625 L 510.421875 350.234375 L 482.796875 350.234375 Z M 482.796875 411.265625 "/>
<path style="fill:none;stroke-width:1.066978;stroke-linecap:butt;stroke-linejoin:round;stroke:rgb(0%,0%,0%);stroke-opacity:1;stroke-miterlimit:10;" d="M 416.804688 418.613281 L 416.804688 256.933594 "/>
<g style="fill:rgb(0%,0%,0%);fill-opacity:1;">
  <use xlink:href="#glyph0-1" x="376.328125" y="415.538086"/>
  <use xlink:href="#glyph0-13" x="383" y="415.538086"/>
  <use xlink:href="#glyph0-14" x="389.671875" y="415.538086"/>
  <use xlink:href="#glyph0-1" x="396.679688" y="415.538086"/>
  <use xlink:href="#glyph0-1" x="403.351562" y="415.538086"/>
</g>
<g style="fill:rgb(0%,0%,0%);fill-opacity:1;">
  <use xlink:href="#glyph0-8" x="376.328125" y="367.772461"/>
  <use xlink:href="#glyph0-13" x="383" y="367.772461"/>
  <use xlink:href="#glyph0-14" x="389.671875" y="367.772461"/>
  <use xlink:href="#glyph0-1" x="396.679688" y="367.772461"/>
  <use xlink:href="#glyph0-2" x="403.351562" y="367.772461"/>
</g>
<g style="fill:rgb(0%,0%,0%);fill-opacity:1;">
  <use xlink:href="#glyph0-10" x="376.328125" y="320.00293"/>
  <use xlink:href="#glyph0-13" x="383" y="320.00293"/>
  <use xlink:href="#glyph0-14" x="389.671875" y="320.00293"/>
  <use xlink:href="#glyph0-1" x="396.679688" y="320.00293"/>
  <use xlink:href="#glyph0-2" x="403.351562" y="320.00293"/>
</g>
<g style="fill:rgb(0%,0%,0%);fill-opacity:1;">
  <use xlink:href="#glyph0-11" x="376.328125" y="272.237305"/>
  <use xlink:href="#glyph0-13" x="383" y="272.237305"/>
  <use xlink:href="#glyph0-14" x="389.671875" y="272.237305"/>
  <use xlink:href="#glyph0-1" x="396.679688" y="272.237305"/>
  <use xlink:href="#glyph0-2" x="403.351562" y="272.237305"/>
</g>
<path style="fill:none;stroke-width:1.066978;stroke-linecap:butt;stroke-linejoin:round;stroke:rgb(0%,0%,0%);stroke-opacity:1;stroke-miterlimit:10;" d="M 413.316406 411.265625 L 416.804688 411.265625 "/>
<path style="fill:none;stroke-width:1.066978;stroke-linecap:butt;stroke-linejoin:round;stroke:rgb(0%,0%,0%);stroke-opacity:1;stroke-miterlimit:10;" d="M 413.316406 363.5 L 416.804688 363.5 "/>
<path style="fill:none;stroke-width:1.066978;stroke-linecap:butt;stroke-linejoin:round;stroke:rgb(0%,0%,0%);stroke-opacity:1;stroke-miterlimit:10;" d="M 413.316406 315.730469 L 416.804688 315.730469 "/>
<path style="fill:none;stroke-width:1.066978;stroke-linecap:butt;stroke-linejoin:round;stroke:rgb(0%,0%,0%);stroke-opacity:1;stroke-miterlimit:10;" d="M 413.316406 267.964844 L 416.804688 267.964844 "/>
<path style="fill:none;stroke-width:1.066978;stroke-linecap:butt;stroke-linejoin:round;stroke:rgb(0%,0%,0%);stroke-opacity:1;stroke-miterlimit:10;" d="M 416.804688 418.613281 L 515.027344 418.613281 "/>
<path style="fill:none;stroke-width:1.066978;stroke-linecap:butt;stroke-linejoin:round;stroke:rgb(0%,0%,0%);stroke-opacity:1;stroke-miterlimit:10;" d="M 435.222656 422.101562 L 435.222656 418.613281 "/>
<path style="fill:none;stroke-width:1.066978;stroke-linecap:butt;stroke-linejoin:round;stroke:rgb(0%,0%,0%);stroke-opacity:1;stroke-miterlimit:10;" d="M 465.914062 422.101562 L 465.914062 418.613281 "/>
<path style="fill:none;stroke-width:1.066978;stroke-linecap:butt;stroke-linejoin:round;stroke:rgb(0%,0%,0%);stroke-opacity:1;stroke-miterlimit:10;" d="M 496.609375 422.101562 L 496.609375 418.613281 "/>
<g style="fill:rgb(0%,0%,0%);fill-opacity:1;">
  <use xlink:href="#glyph0-4" x="430.722656" y="433.862305"/>
</g>
<g style="fill:rgb(0%,0%,0%);fill-opacity:1;">
  <use xlink:href="#glyph0-5" x="461.414062" y="433.862305"/>
</g>
<g style="fill:rgb(0%,0%,0%);fill-opacity:1;">
  <use xlink:href="#glyph0-6" x="488.109375" y="433.862305"/>
  <use xlink:href="#glyph0-7" x="496.292969" y="433.862305"/>
</g>
<g style="fill:rgb(0%,0%,0%);fill-opacity:1;">
  <use xlink:href="#glyph1-7" x="434.414062" y="451.380859"/>
  <use xlink:href="#glyph1-8" x="443.751953" y="451.380859"/>
  <use xlink:href="#glyph1-3" x="446.860352" y="451.380859"/>
  <use xlink:href="#glyph1-9" x="454.644531" y="451.380859"/>
  <use xlink:href="#glyph1-10" x="462.428711" y="451.380859"/>
  <use xlink:href="#glyph1-11" x="467.510742" y="451.380859"/>
  <use xlink:href="#glyph1-8" x="471.402344" y="451.380859"/>
  <use xlink:href="#glyph1-11" x="474.510742" y="451.380859"/>
  <use xlink:href="#glyph1-8" x="478.402344" y="451.380859"/>
  <use xlink:href="#glyph1-2" x="481.510742" y="451.380859"/>
  <use xlink:href="#glyph1-12" x="489.294922" y="451.380859"/>
</g>
<g style="fill:rgb(0%,0%,0%);fill-opacity:1;">
  <use xlink:href="#glyph2-9" x="369.310547" y="370.773438"/>
  <use xlink:href="#glyph2-10" x="369.310547" y="361.435547"/>
  <use xlink:href="#glyph2-8" x="369.310547" y="358.327148"/>
  <use xlink:href="#glyph2-2" x="369.310547" y="354.645508"/>
  <use xlink:href="#glyph2-4" x="369.310547" y="346.861328"/>
  <use xlink:href="#glyph2-5" x="369.310547" y="342.969727"/>
  <use xlink:href="#glyph2-6" x="369.310547" y="332.861328"/>
  <use xlink:href="#glyph2-7" x="369.310547" y="325.077148"/>
  <use xlink:href="#glyph2-3" x="369.310547" y="317.292969"/>
  <use xlink:href="#glyph2-8" x="369.310547" y="309.508789"/>
</g>
<g style="fill:rgb(0%,0%,0%);fill-opacity:1;">
  <use xlink:href="#glyph3-11" x="423.914062" y="249.59375"/>
  <use xlink:href="#glyph3-15" x="435.576172" y="249.59375"/>
  <use xlink:href="#glyph3-13" x="444.704102" y="249.59375"/>
  <use xlink:href="#glyph3-14" x="457.919922" y="249.59375"/>
  <use xlink:href="#glyph3-4" x="468.02832" y="249.59375"/>
  <use xlink:href="#glyph3-17" x="471.919922" y="249.59375"/>
  <use xlink:href="#glyph3-18" x="482.02832" y="249.59375"/>
  <use xlink:href="#glyph3-8" x="489.8125" y="249.59375"/>
  <use xlink:href="#glyph3-19" x="495.258789" y="249.59375"/>
  <use xlink:href="#glyph3-10" x="503.8125" y="249.59375"/>
</g>
<g style="fill:rgb(0%,0%,0%);fill-opacity:1;">
  <use xlink:href="#glyph4-6" x="353.664062" y="248.066406"/>
</g>
</g>
</svg>
