coal tree	-1.41871000004994
coal tree	-3.80864300020039
coal tree	-0.213876000019809
super tree	0.247356999980184
coal tree	-2.69075400004112
super tree	5.11361400019996
super tree	3.53056299980017
coal tree	-5.76644600000145
coal tree	-2.72807400010061
super tree	1.72215700000015
super tree	3.95570100000987
coal tree	-1.6841790000999
coal tree	-0.6101180002006
super tree	5.41724400000021
coal tree	-3.17664099998001
coal tree	-2.33377100008056
super tree	3.17780299992046
coal tree	-10.325037999799
super tree	0.321223000030841
coal tree	-1.0100370002001
coal tree	-2.22811400013961
super tree	3.02163000009932
super tree	0.0625199999994948
super tree	0.432518000010077
coal tree	-1.0777909999797
coal tree	-1.31877800003031
super tree	0.306601999979648
coal tree	-2.64858700009972
super tree	3.28783099999964
super tree	7.07945100019788
super tree	4.73539299970071
coal tree	-3.79494999999952
coal tree	-3.03226700050072
super tree	1.3172530000993
coal tree	-6.66096399959861
coal tree	-1.1561899999997
coal tree	-6.2122139999301
coal tree	-5.63352699999996
super tree	1.67952299998069
super tree	2.93532000001005
coal tree	-2.08889100059969
super tree	2.58833799999957
super tree	0.101270000040131
super tree	0.831966000199827
super tree	9.56126499940001
super tree	0.94553999980053
super tree	2.40732500010199
coal tree	-5.54340500000035
super tree	1.77566600023965
super tree	2.64634399994975
super tree	2.20230800009995
super tree	0.164440999969884
coal tree	-7.71577600000091
coal tree	-0.273547000200779
super tree	1.33938500003023
super tree	5.50072400009049
super tree	3.01279500040255
super tree	0.76251699939894
coal tree	-1.87442000010014
coal tree	-3.8282020000006
super tree	3.74146900000051
super tree	2.70962000001055
super tree	4.75637599970287
coal tree	-7.47081900010016
super tree	2.45996599999944
coal tree	-1.8911850000386
coal tree	-8.02604100040116
coal tree	-1.5581220000804
coal tree	-2.56370299995979
super tree	0.865640999940297
coal tree	-4.47509100009847
coal tree	-1.01386000003004
coal tree	-0.542849000060414
super tree	3.31812499993066
super tree	0.926449999900797
super tree	0.561423999960425
coal tree	-0.394774999999754
super tree	3.36574899996049
coal tree	-6.56479500000933
super tree	4.91974200001005
super tree	12.1180130004977
super tree	3.38972600004035
coal tree	-6.83671100009815
super tree	4.21194999998079
coal tree	-1.55628100000104
coal tree	-8.46274900000026
coal tree	-1.62904699998035
super tree	1.83507399996961
super tree	1.78623700002936
super tree	5.01894700001048
super tree	5.68817999989915
coal tree	-3.48887500002002
super tree	6.20142000000124
coal tree	-0.324832000011156
coal tree	-5.39470200000869
super tree	2.86840399989887
super tree	4.09246799998982
coal tree	-1.98266999929911
coal tree	-1.51229500001955
coal tree	-6.61494500004028
coal tree	-0.0109249997003644
coal tree	-2.73687900010009
coal tree	-0.0340469999591733
coal tree	-1.68180699997993
super tree	1.04177699990032
super tree	0.575317000098948
coal tree	-0.324040999799763
super tree	2.19377000000895
super tree	4.11037500030034
coal tree	-4.44645499989929
super tree	0.828857000098651
coal tree	-1.29660900010094
coal tree	-3.05599700007042
coal tree	-2.80355700010114
coal tree	-3.91383799997948
super tree	5.82442800009994
coal tree	-4.29162999999971
coal tree	-7.46873400000186
super tree	3.46334399997068
coal tree	-6.48273499980132
super tree	0.00629200000003038
super tree	0.517845999896963
coal tree	-7.85663100010061
coal tree	-2.58180600000014
coal tree	-9.33277199979966
coal tree	-2.08824600019943
super tree	1.19785599993975
super tree	2.46028400001978
coal tree	-1.52920100007941
super tree	2.15826399999969
super tree	2.32485599996016
coal tree	-2.28738000000976
super tree	5.26411199979702
coal tree	-0.9302340002032
coal tree	-3.22477499988963
coal tree	-5.94846600001074
super tree	1.62557000030029
coal tree	-6.47555899990039
super tree	2.01412900000014
super tree	1.55786400010038
super tree	2.89901700000155
coal tree	-1.45110100003058
coal tree	-2.50129199990988
super tree	0.300434999950085
super tree	1.00016399989909
coal tree	-2.99654700019892
super tree	0.869818999959534
super tree	11.3172029998987
super tree	2.91523300010158
coal tree	-2.11261900000045
super tree	0.43366800000058
coal tree	-0.519075999949564
coal tree	-3.96140899999955
coal tree	-3.33040800001982
coal tree	-4.02654900000016
super tree	2.93617900009849
coal tree	-6.32281799996053
super tree	0.670847000048525
super tree	3.40189600003032
coal tree	-6.63977300019906
coal tree	-2.57127400009995
coal tree	-8.62640400009877
coal tree	-0.0270969997000066
coal tree	-4.96576099939921
super tree	4.0119220000006
coal tree	-1.45563600000969
coal tree	-3.03037300001051
super tree	9.86979299980158
super tree	1.41970700002003
super tree	5.46013500019944
super tree	0.319558999999572
coal tree	-3.62927199999012
super tree	0.590961999900173
super tree	1.02656599990041
super tree	5.34108799999922
super tree	6.86957499980053
super tree	1.68003299999873
super tree	0.225659999900017
coal tree	-1.77069699999993
super tree	0.00415700001030928
super tree	3.18350399989868
super tree	0.303413999969962
super tree	5.55253399999856
super tree	2.17695199999071
coal tree	-0.26695899996048
coal tree	-2.35065199999917
coal tree	-0.812748999978794
coal tree	-3.12515399999938
coal tree	-0.358040999999503
super tree	5.59823700000015
coal tree	-4.56256399990161
coal tree	-3.00104900001952
coal tree	-5.59786599959989
coal tree	-5.26297400010117
super tree	12.2962490003993
coal tree	-1.54178499998034
coal tree	-1.78110800001014
coal tree	-0.904171999980463
super tree	4.89887799969983
coal tree	-0.611514000019724
super tree	3.31941800001005
super tree	1.49954899998966
coal tree	-0.0955410000296979
super tree	1.0100520000201
coal tree	-2.59960400019918
coal tree	-1.23195399986071
coal tree	-1.57757099999981
super tree	0.251404999698934
coal tree	-6.50658899980044
super tree	4.05850099979943
coal tree	-3.02506800000992
super tree	0.519251000030636
super tree	4.00823000001037
coal tree	-11.2606220002017
coal tree	-0.365387999900122
coal tree	-1.02656399999978
super tree	3.26714399991943
coal tree	-2.21971300003042
coal tree	-1.10810999999921
super tree	5.66171400009989
coal tree	-0.409669000100621
super tree	0.0779289998990862
coal tree	-7.46577199997955
super tree	0.877049000202533
coal tree	-0.241293999999471
super tree	3.47443699993983
super tree	1.86270199997034
coal tree	-0.638526000060665
coal tree	-1.23964599999999
coal tree	-1.74038300004031
coal tree	-1.47060799989958
coal tree	-3.18065100009881
super tree	2.83696099989902
super tree	0.133531999899787
super tree	5.55708000008053
super tree	0.494424000029539
coal tree	-3.5308100000093
super tree	3.29748100010329
super tree	0.559720999899582
coal tree	-0.782805999930133
coal tree	-2.80633800000032
super tree	0.519207000099414
coal tree	-8.9459470001002
super tree	3.19113800000923
coal tree	-0.113582999991195
super tree	1.12149399999998
coal tree	-1.67836600006012
super tree	0.147184999989804
coal tree	-0.373275000039939
super tree	0.0701539999599845
super tree	1.85921400010011
super tree	1.95917000010013
coal tree	-4.35699099992962
super tree	1.07466900001009
super tree	1.49684799995975
coal tree	-0.883228000029703
coal tree	-0.433129000000918
coal tree	-5.6978909999998
coal tree	-1.82437400002982
super tree	3.14059599999928
coal tree	-0.348365999960151
super tree	7.35036099990066
coal tree	-2.16598500009968
coal tree	-2.15161099999932
super tree	0.548603999980514
coal tree	-1.00376700004017
super tree	4.42495999999664
super tree	9.75447100030033
super tree	3.65794700019978
coal tree	-2.62614999989091
super tree	4.97459100000015
coal tree	-1.65700800000013
super tree	2.07811700000093
coal tree	-2.46259399990049
super tree	2.1392389998
super tree	2.65310000006048
super tree	2.57704299979923
super tree	0.410705000000235
coal tree	-0.349133000029724
super tree	4.19214699993972
coal tree	-8.18472299999848
coal tree	-0.0336919999408565
coal tree	-2.05449000000954
coal tree	-2.40634399998089
coal tree	-4.16072399996028
super tree	2.48164899999938
super tree	1.01995700010048
coal tree	-3.09812100009913
coal tree	-0.0976100000698352
super tree	4.91351899999972
coal tree	-0.687659999603056
super tree	3.15514999959851
coal tree	-7.37366199999997
super tree	3.42724199999975
super tree	5.10535799997069
coal tree	-2.77680800004964
super tree	0.39682699991863
super tree	3.13650999978017
super tree	0.736789000000044
coal tree	-2.04564100040079
super tree	2.06003299979966
coal tree	-0.379816999989998
super tree	0.403984999900786
coal tree	-8.34058600000026
super tree	1.65851699999985
coal tree	-4.76565900010064
super tree	0.496212999989439
coal tree	-2.14155299990125
super tree	1.86916599994038
super tree	1.1136650000899
coal tree	-0.574317000080555
coal tree	-1.23505400003887
coal tree	-3.89588299997922
coal tree	-5.32543900000019
coal tree	-4.73578599998018
super tree	4.62786299999971
coal tree	-3.53316999994058
super tree	0.0332179999895743
super tree	2.90584899998976
coal tree	-0.20427100004963
coal tree	-3.57198400000016
super tree	1.18819299989991
super tree	2.81086899993988
coal tree	-0.677860000009787
coal tree	-1.19195399980163
coal tree	-0.602159000000029
coal tree	-0.261507999999594
coal tree	-0.204330999989907
coal tree	-0.86614999997073
super tree	1.23517599980005
super tree	1.86115899996003
coal tree	-1.26023699990037
coal tree	-4.92451499996059
super tree	1.04930500000046
super tree	1.53664299999946
super tree	1.79041499998129
super tree	4.73348999980044
coal tree	-2.80904300002021
super tree	1.70695500002967
super tree	3.36770600001
super tree	3.30328999998073
super tree	0.632569000000331
coal tree	-3.54985299980035
coal tree	-0.291451000010056
super tree	5.67864200010081
super tree	3.41721799980041
coal tree	-3.96436200004064
super tree	1.83110300002045
coal tree	-1.91952500002935
coal tree	-1.59240599997975
coal tree	-1.21573499997066
coal tree	-2.83431500020015
coal tree	-3.62363299999015
coal tree	-1.85140700000011
coal tree	-1.97337799990055
super tree	0.241104000000632
super tree	1.22716699997
coal tree	-0.427936000090085
super tree	1.40432000003057
coal tree	-1.60202399993977
super tree	7.49762500010002
super tree	0.600102000200422
coal tree	-1.11605499980033
coal tree	-1.02086299999974
super tree	3.18889000004947
coal tree	-10.3483759994997
super tree	0.938703999950121
coal tree	-4.24755299999015
coal tree	-6.57317600001988
super tree	3.54933400039954
super tree	4.41400299989982
super tree	3.14881500000956
coal tree	-2.05784900029903
super tree	5.32675000060044
coal tree	-1.46700899970165
super tree	5.55209400008971
super tree	2.52034900000035
coal tree	-1.18534900109807
super tree	5.23124000009921
coal tree	-0.440784000040367
super tree	2.19185599997945
super tree	5.17844700010028
super tree	0.526425000000017
coal tree	-0.848037999970074
super tree	3.94797299997026
coal tree	-0.00269400004981435
coal tree	-3.57227499998999
super tree	7.79332700001942
coal tree	-2.88357199999973
coal tree	-0.0937310000990692
super tree	3.21354399980009
super tree	0.0672349999204016
super tree	2.04531199995108
super tree	5.32658500010075
coal tree	-4.24017099999946
super tree	3.15213200002017
coal tree	-5.43432399930316
super tree	2.70487300000241
coal tree	-2.34777500006021
coal tree	-3.03737299995009
super tree	0.957662000019809
super tree	3.61320199989859
coal tree	-0.26796600004036
coal tree	-0.482403000100021
super tree	1.41096499998002
coal tree	-0.692540999990342
coal tree	-1.76585799999975
super tree	0.648239000019203
super tree	1.95628600020063
super tree	2.48951299999862
super tree	2.59775799999989
coal tree	-1.51806400001988
coal tree	-3.18137299997034
coal tree	-4.6179030000003
coal tree	-1.52942599990092
super tree	2.78308700016896
super tree	1.09584199980054
coal tree	-2.19163200030016
coal tree	-1.75982899979863
coal tree	-5.50205499979711
super tree	0.238846999960515
coal tree	-3.05033599996023
super tree	8.42257599980076
super tree	0.356714000001375
coal tree	-0.325555000009444
super tree	2.78325899999982
coal tree	-3.07438600010028
coal tree	-4.75230799997007
coal tree	-2.47487000010005
super tree	1.37109399998008
coal tree	-0.825646999999663
super tree	0.230527999970036
super tree	6.21394900009909
super tree	6.61899699999958
super tree	3.11378499989951
coal tree	-2.46751500002028
super tree	10.5380259999984
super tree	0.551257000020087
coal tree	-7.43640599990977
super tree	0.609937999979593
super tree	7.29207400009909
coal tree	-0.0723270000098637
coal tree	-3.41412899999887
coal tree	-4.150439000201
coal tree	-7.60081800019907
super tree	0.700071999999636
coal tree	-0.55162100005964
coal tree	-10.017795998996
coal tree	-6.19641100000081
coal tree	-2.64102999998977
super tree	0.223860000090099
super tree	8.61666300020079
super tree	5.22069399999964
super tree	7.86598999990019
coal tree	-0.373745000009876
coal tree	-0.383935999900132
coal tree	-0.576979000199572
coal tree	-1.78873899999962
super tree	1.66282299997965
super tree	0.136349999800586
super tree	0.249223000100756
super tree	4.49440400009917
super tree	0.312917999969613
coal tree	-3.87115200010157
coal tree	-1.77486600001976
super tree	1.5193320000003
super tree	0.0997169999991456
super tree	3.87137600009919
coal tree	-1.24363099988932
super tree	1.26481499999863
coal tree	-3.67426499999783
coal tree	-3.82205600000088
coal tree	-3.52117599996018
super tree	0.149748000019827
coal tree	-2.33264299979965
coal tree	-0.0692949999993289
super tree	4.29395699997076
coal tree	-3.36440999996012
coal tree	-2.73882199999935
super tree	6.16984400000001
coal tree	-4.75320499995996
super tree	2.27930500000002
coal tree	-0.270203999999922
coal tree	-0.150636999998824
super tree	0.42687299994941
super tree	3.31663799990019
coal tree	-0.779073999990032
super tree	2.68604199996025
coal tree	-1.34459699999934
super tree	11.0383250000996
super tree	0.752604000197607
super tree	1.47147199999927
coal tree	-8.36495200019999
coal tree	-2.49951799999963
coal tree	-3.23917600010009
coal tree	-2.7731059996986
super tree	4.54392899990125
coal tree	-2.28926800010049
super tree	2.2236380000104
coal tree	-9.70351700089668
super tree	4.54034899989892
super tree	1.32555200003026
super tree	5.24153900009878
super tree	0.373219999000867
coal tree	-0.643875000010667
super tree	3.60854600000948
super tree	2.90052299995114
super tree	2.54093099999955
super tree	4.61825100000988
coal tree	-2.27545600001031
super tree	1.43844199997966
super tree	5.72759299999962
coal tree	-0.866676000021471
super tree	1.78778100002
super tree	1.907537000101
super tree	1.39326699979028
coal tree	-7.1704920000011
super tree	2.39984899999945
super tree	0.860894999801531
coal tree	-0.0413289999405606
super tree	3.59550500000114
coal tree	-7.09809699997004
coal tree	-3.86734300012904
coal tree	-1.01549899991005
coal tree	-3.44166399996993
super tree	1.06141300001036
coal tree	-5.67411900007937
coal tree	-3.25408399999014
super tree	0.092184999899473
coal tree	-0.131895000059558
super tree	5.79793700019945
coal tree	-3.10545300049853
coal tree	-2.42474299999958
coal tree	-3.45301400003154
coal tree	-4.34501800030012
super tree	1.57395699994959
super tree	1.4955250000603
super tree	5.35324000003038
coal tree	-4.54358899999897
coal tree	-9.54856700008077
coal tree	-0.155067000028794
coal tree	-0.639119999999821
coal tree	-1.88863200000014
super tree	3.52361900010146
super tree	3.87845599999855
coal tree	-4.83306300000004
super tree	1.54532700029995
super tree	6.49454999998034
super tree	0.427431999800319
super tree	6.36790900000051
coal tree	-5.7267120000015
super tree	0.461572000010165
coal tree	-2.94948399999885
super tree	7.76520899970274
super tree	1.28925600003004
coal tree	-7.87233100010053
coal tree	-4.36576199999945
super tree	0.00808899989715428
super tree	7.59864799993011
coal tree	-1.59494699989955
super tree	0.199915999799487
super tree	1.18730300000061
coal tree	-6.8230870003008
coal tree	-7.63930500010065
coal tree	-0.942696000100113
coal tree	-3.76633799997035
coal tree	-0.551321000039934
super tree	1.57846200000949
super tree	5.9227899999396
super tree	3.40296300004047
super tree	4.84363600002871
super tree	6.17686800000047
super tree	2.25734500005001
super tree	3.30536300000995
coal tree	-0.372514999970008
super tree	6.23065700003008
coal tree	-1.5974669999805
coal tree	-0.00583599993842654
super tree	1.61322500009919
super tree	2.71660200005044
super tree	3.77336600015951
coal tree	-5.76867199980188
coal tree	-0.513829000199621
coal tree	-1.33124100001987
coal tree	-3.16257100009898
super tree	1.21591299995998
coal tree	-1.51357800000005
super tree	6.11648500000047
super tree	5.31394800030102
super tree	0.883614999989732
coal tree	-1.67024700001002
super tree	3.50805900039995
coal tree	-1.94643999994878
super tree	1.92819299987968
coal tree	-0.0657069999488158
coal tree	-2.17160799999874
coal tree	-4.55362499999865
super tree	1.56618100000014
super tree	1.45251000000098
super tree	1.12166100006834
super tree	1.31140700002015
coal tree	-7.27948899998046
coal tree	-2.41019899991988
coal tree	-1.91202199999861
super tree	0.72906200000989
coal tree	-3.58454900001016
super tree	4.49605899949893
super tree	0.0238779999890539
super tree	6.8461909999105
super tree	0.0986890000303902
coal tree	-0.17273900049986
coal tree	-1.69634400000996
coal tree	-3.3208229999982
super tree	1.03222099994036
coal tree	-6.84437599979901
coal tree	-0.730644999989636
super tree	3.19324200001938
coal tree	-1.32323400001951
super tree	5.01831699996001
super tree	0.464108000060151
super tree	2.77551000010862
super tree	1.62191899999925
coal tree	-0.687075000150799
coal tree	-0.881456000099206
coal tree	-5.82444799998029
coal tree	-2.50376699999015
coal tree	-2.2767400001012
coal tree	-9.78478600003109
coal tree	-3.18150999999853
coal tree	-5.76307300010012
coal tree	-1.0659289999985
super tree	0.209114000101181
super tree	4.90486100000089
super tree	3.55065500000001
coal tree	-2.15143299999909
coal tree	-5.87069099990185
super tree	3.71227499997076
coal tree	-1.15849300039918
coal tree	-2.47333099985008
coal tree	-3.93870000002971
super tree	3.96428400009972
coal tree	-2.37995299990143
super tree	4.49983999995948
super tree	3.18402000020069
super tree	6.54668800000218
coal tree	-6.08220999990954
super tree	1.22762899993995
coal tree	-3.24874299930161
coal tree	-5.636391
coal tree	-4.22450499999968
coal tree	-0.302190000010341
coal tree	-0.033357999918735
super tree	1.22497500010013
super tree	1.81808300002922
coal tree	-3.56751900010022
super tree	0.192800000000716
super tree	6.61082300000271
coal tree	-0.539247000198884
super tree	2.57693200001995
super tree	1.08139699999992
super tree	0.895043000000442
super tree	4.34066900000107
super tree	4.64977800001998
super tree	4.57490300029895
super tree	2.39894799999001
coal tree	-4.6877860002005
super tree	2.05688800001008
coal tree	-1.71852900000977
super tree	33.0653160000002
super tree	4.46999199998027
coal tree	-1.21400399999948
super tree	4.74559399996997
super tree	0.431689999950322
super tree	0.117129000100249
coal tree	-0.800629999919693
super tree	5.02411599950028
coal tree	-4.67296400013038
coal tree	-0.105845999900339
super tree	10.6367989999999
super tree	0.233440999890263
coal tree	-8.80474800019874
super tree	0.0648199999905046
super tree	6.28729500020017
super tree	5.51287300003969
super tree	0.339840000000549
coal tree	-6.56632199990054
coal tree	-4.88778799992906
coal tree	-0.664864999980637
coal tree	-1.28804899994975
coal tree	-2.50790699999015
coal tree	-4.97928299996056
coal tree	-0.768410000009681
coal tree	-4.11269499979971
coal tree	-0.739153999949849
coal tree	-1.98763900002086
coal tree	-6.34127499960232
coal tree	-0.509855999820502
super tree	3.47911600001044
super tree	2.13770400001977
coal tree	-3.81840400001056
coal tree	-1.09846899989861
super tree	4.82049900049969
coal tree	-2.16365699999915
coal tree	-0.718150000000605
coal tree	-2.88196499994046
coal tree	-2.13338099998055
coal tree	-1.40849299990077
super tree	1.77259000014055
super tree	0.322734000070341
coal tree	-0.392008000029819
super tree	4.22034899989922
super tree	0.864699999940058
super tree	2.8981449999801
coal tree	-0.375976999990598
super tree	5.37652499990145
coal tree	-0.427983999999924
coal tree	-2.04502400000001
super tree	2.1170459997993
coal tree	-7.19395300050019
coal tree	-3.35583899995981
coal tree	-2.29465700004039
super tree	2.94807300002049
coal tree	-0.706153000030099
super tree	1.91469699998925
super tree	4.81638500000008
super tree	2.99494099993899
super tree	1.34899400009999
coal tree	-2.4027730000289
coal tree	-2.9927099999004
super tree	1.39698100003989
coal tree	-3.64081100005933
coal tree	-0.426005999939662
super tree	0.523669000060181
super tree	4.50419399989914
super tree	1.48143100005018
super tree	0.21988200001033
super tree	2.34413900009895
coal tree	-8.84613199970045
coal tree	-0.603028000020458
coal tree	-0.325270999899658
coal tree	-1.26885000001039
coal tree	-0.0429219999987254
super tree	5.88940100000036
super tree	5.11588699989807
super tree	3.42699699996047
super tree	1.49101999999948
super tree	3.11314899990248
coal tree	-4.19264399999884
coal tree	-4.53178400020079
super tree	0.945986000009725
coal tree	-0.0704940001996874
coal tree	-0.273620999999366
super tree	1.42203699997026
coal tree	-1.75726200029931
super tree	2.85524800009989
coal tree	-5.05380099999002
coal tree	-5.30033100010041
super tree	0.796647999989545
super tree	2.49947000000066
super tree	0.0378839999993943
coal tree	-0.885166000000027
super tree	2.36861900007898
coal tree	-1.68508099999053
super tree	4.27161200000955
super tree	2.27903200010041
super tree	1.91815899997891
super tree	1.40320399990014
super tree	1.92112700003054
super tree	0.296925000019655
coal tree	-1.08467300000029
coal tree	-2.00621599993974
coal tree	-2.08008500004871
super tree	2.16917699999976
super tree	2.0167820000097
coal tree	-0.87686199998916
coal tree	-3.47508099979859
super tree	0.0618579999008944
coal tree	-6.0588829999906
coal tree	-0.737334999999803
coal tree	-0.0763560000996222
coal tree	-0.373583999999937
super tree	1.13220199990064
coal tree	-8.2582080000011
coal tree	-2.66363799999999
coal tree	-0.999255000098856
super tree	1.29270100010035
coal tree	-0.54648600010114
coal tree	-4.41703899999993
super tree	1.94828799999959
super tree	2.71137000019917
super tree	1.68842299987955
coal tree	-4.10950799999955
super tree	2.88325699984853
coal tree	-2.31521600000997
coal tree	-4.01264800009994
coal tree	-2.6296829999992
coal tree	-2.31293900002129
coal tree	-1.00357299989992
coal tree	-0.877575000000434
super tree	0.495587999979762
super tree	1.98506400000042
super tree	1.17223099989951
coal tree	-0.0906429998012754
coal tree	-5.01110200014045
coal tree	-0.64377199998853
super tree	6.24323900000127
coal tree	-0.120002000039676
super tree	1.11590700005036
coal tree	-3.25845700001082
super tree	4.62947099999019
coal tree	-5.87444400004006
super tree	11.3496440000508
super tree	0.537567999989733
coal tree	-0.42349699999977
coal tree	-1.15250699998978
coal tree	-4.31225699999959
coal tree	-1.66586500002995
super tree	1.92112400001133
coal tree	-5.02346899995973
coal tree	-2.24656799999138
super tree	7.09641999999985
super tree	3.22229200001993
coal tree	-3.83642800000962
super tree	2.92516999990039
super tree	1.33650200000011
super tree	1.62387399998988
super tree	3.76691200000096
super tree	4.85309499909999
coal tree	-0.0779949999896417
super tree	3.84726199997021
super tree	3.25541399999929
coal tree	-0.804057000019384
super tree	1.00669299999936
coal tree	-2.17697399999997
coal tree	-0.169656999980361
super tree	1.94438300001002
coal tree	-1.85584300003029
coal tree	-0.156553999999232
coal tree	-0.609791999901063
super tree	1.62861700099893
super tree	3.42872299970077
super tree	0.0950379999994766
coal tree	-0.0832960000607272
super tree	3.0477549999805
coal tree	-4.7948920000008
super tree	0.39011100001062
super tree	1.87881300010122
coal tree	-2.75558099999944
coal tree	-3.21912799998063
coal tree	-0.695910999999796
super tree	1.42519200001971
coal tree	-0.060809000000063
coal tree	-4.48147900005006
coal tree	-0.725757999989582
super tree	1.00098799999978
super tree	4.01868399996965
super tree	0.17561800006024
super tree	0.739311999990605
coal tree	-0.519465000001219
super tree	2.4539220000006
super tree	6.25631799980147
coal tree	-4.27455800000098
coal tree	-2.39616299999943
super tree	7.0092020004995
coal tree	-0.23804499994003
coal tree	-2.83476099960171
coal tree	-3.39985100000013
coal tree	-7.81796799999938
super tree	6.50471999979891
super tree	4.70580400002018
coal tree	-0.284377999800199
coal tree	-3.8421909999397
super tree	1.87159000005158
coal tree	-0.663873000199601
super tree	5.56110199990144
coal tree	-0.0346849991983618
coal tree	-0.555233999999473
coal tree	-3.23379200001
super tree	5.23444599999857
coal tree	-1.52208000010069
super tree	0.103295000020807
coal tree	-2.65567999990981
super tree	6.90282299999035
super tree	4.46684999990066
coal tree	-3.22747000000027
super tree	4.17631999989862
coal tree	-1.85307399991871
coal tree	-1.83726700001989
super tree	3.32531200010089
coal tree	-3.41699000000972
super tree	1.60327299998971
coal tree	-1.90459100000044
super tree	0.585618000060094
super tree	0.704469999990579
coal tree	-5.21519799969974
coal tree	-0.330143999950451
super tree	1.53859999999986
super tree	2.79853999999978
coal tree	-2.76748500000031
super tree	2.66288799999893
super tree	6.81295400009913
super tree	0.620910000049662
coal tree	-0.724833000200306
coal tree	-0.924169999959304
coal tree	-2.7320899999504
coal tree	-2.2729610000988
coal tree	-0.924229000000196
super tree	2.95735600030093
coal tree	-3.3457240000298
coal tree	-0.0282849999002792
super tree	0.406135999961407
super tree	2.65414999996938
super tree	2.53814100010277
coal tree	-5.28042099989943
coal tree	-3.89316899998994
coal tree	-0.444249999960448
super tree	5.95444399990083
coal tree	-0.457543999949849
super tree	0.286294000029557
coal tree	-1.27116100000057
coal tree	-1.62380899999016
coal tree	-12.8297129996008
super tree	2.79194300001018
coal tree	-5.53787100000955
coal tree	-0.513607999999749
coal tree	-2.40175099998032
super tree	3.70145199997023
super tree	5.09605200010083
super tree	3.40979799988963
coal tree	-1.36197700010052
super tree	0.952106999899115
super tree	1.30672299999969
coal tree	-1.18917899992994
super tree	2.42484900002091
super tree	0.487295000009908
super tree	2.58668599997964
super tree	6.29681400019945
coal tree	-2.56924199989953
coal tree	-3.12448599990057
coal tree	-4.45598299999983
super tree	7.58435200000167
super tree	3.40843400001904
coal tree	-3.2895469999994
super tree	4.38689300009719
coal tree	-5.4166210000003
coal tree	-1.94118799989883
coal tree	-1.44165099990096
coal tree	-1.60691799995948
super tree	3.25472499996977
super tree	3.96534700029952
coal tree	-2.83253800003058
coal tree	-6.18637299990041
super tree	0.730046000000584
coal tree	-2.56525099988903
coal tree	-1.28619600019738
coal tree	-3.86404600019887
coal tree	-1.6379509999997
super tree	1.76804300000003
super tree	2.90986900001008
coal tree	-8.44094000000041
coal tree	-7.89488700000038
coal tree	-2.70272199996998
super tree	6.19485200000054
coal tree	-4.16383599998062
coal tree	-0.0740560000099322
super tree	2.41979099998025
super tree	1.22107800010053
super tree	0.190841000039654
super tree	6.74016400039909
coal tree	-5.53246600000057
super tree	1.18911100000332
super tree	16.6325320001015
super tree	2.77163399980054
coal tree	-0.889898000010362
super tree	2.75246900001002
coal tree	-6.74012800030141
coal tree	-4.9194340000995
super tree	2.55622500003028
super tree	2.91620000001967
super tree	0.395629000000554
super tree	5.74076099992999
super tree	3.07591000002003
coal tree	-4.82902000008107
super tree	6.5511299999016
coal tree	-0.0778090000494558
coal tree	-2.99036599979991
super tree	2.01160900002014
coal tree	-0.627045000099315
coal tree	-1.04232800002956
super tree	3.09776300020167
coal tree	-0.596648000009736
super tree	8.13923799979966
coal tree	-7.62534600002982
coal tree	-1.17679300000054
super tree	2.18044100000043
coal tree	-2.63909300039995
coal tree	-1.44991199998003
super tree	1.07511900004101
super tree	0.993864000100075
coal tree	-0.165413999999146
coal tree	-3.75202299998
super tree	0.543685000029654
super tree	1.37974300020142
super tree	3.55063799980053
super tree	0.0784720000010566
coal tree	-0.345380000009754
coal tree	-1.00126299996009
coal tree	-0.782323000099495
super tree	2.54092699998
super tree	4.03178699994896
super tree	7.64823800001977
coal tree	-2.3283390000106
super tree	1.74803700009943
super tree	0.851072999999815
super tree	1.56433199999992
coal tree	-2.32679800000005
super tree	1.12495899995974
super tree	2.48097100003997
coal tree	-0.657697999999073
coal tree	-2.48903900010009
super tree	2.17077599969889
super tree	2.21436900000026
super tree	5.46323500001017
super tree	3.11218199999985
coal tree	-5.65149600010045
super tree	4.86356300001989
super tree	0.600227999989329
super tree	0.537720999800513
super tree	4.86775299970031
super tree	1.25702199995976
super tree	1.056925000099
super tree	3.27911400004996
super tree	1.83892100000048
coal tree	-0.545534999990196
super tree	0.926102000068568
super tree	3.94659200000024
super tree	0.941469000001234
coal tree	-0.78303400006007
super tree	7.78379699979996
super tree	3.8435380000401
coal tree	-0.490019000039865
super tree	0.743474999990212
coal tree	-0.15980300001047
coal tree	-11.2872529999986
coal tree	-6.36574800002018
coal tree	-1.12870600002952
coal tree	-3.46729199999936
coal tree	-1.71701900002972
coal tree	-3.70588499985024
super tree	3.70986000005996
super tree	0.326803999989352
super tree	5.28774899989912
super tree	6.50548800010074
coal tree	-1.04224999998996
coal tree	-0.585929999999962
coal tree	-0.640735999999379
coal tree	-4.05223299999034
coal tree	-3.01113200009968
super tree	3.03174499989836
coal tree	-5.39150299989888
super tree	7.71012999979939
coal tree	-2.95099699999992
coal tree	-0.725439000401821
super tree	4.03573599999982
coal tree	-5.02681400420261
coal tree	-2.68182400010119
coal tree	-2.20749899990005
super tree	0.720816999999442
super tree	1.08303200000046
super tree	1.06425400008993
super tree	2.58072499989976
coal tree	-0.430479000050582
coal tree	-2.07711300015944
super tree	3.22659200020098
coal tree	-5.76506899999004
super tree	0.64923600002021
super tree	9.21393100030036
super tree	3.76966699996046
super tree	0.74193200010086
super tree	1.31950699989829
coal tree	-1.02314699992985
coal tree	-6.47245199999998
coal tree	-0.741633000040565
coal tree	-0.894940999979553
coal tree	-0.394730000100026
super tree	0.682917999800338
super tree	1.30929499998001
super tree	0.91001699996923
super tree	2.53447600004984
super tree	1.42195899979924
coal tree	-0.994448999999804
coal tree	-3.8904999999595
coal tree	-7.42853499999001
coal tree	-5.5612140000012
super tree	3.09546800000135
coal tree	-3.99737399990045
super tree	4.48662999999942
coal tree	-1.83399599999939
coal tree	-0.366451000020788
super tree	3.21414899999945
coal tree	-5.68512399989959
super tree	0.402322000039931
super tree	1.13631199999963
coal tree	-6.71027199990021
coal tree	-4.72710400009964
coal tree	-0.930849000000308
super tree	2.28771100002996
coal tree	-1.12486099950002
super tree	2.27606999999989
super tree	1.26805499999864
coal tree	-5.46101199999976
coal tree	-2.21180600005027
coal tree	-1.11107700000002
coal tree	-1.01411700000062
coal tree	-2.4235699999499
coal tree	-2.02320899999995
super tree	0.223600000000033
super tree	5.05203400029859
coal tree	-0.489431999969383
coal tree	-0.750489999979891
coal tree	-0.825104999999894
coal tree	-3.22655099999974
super tree	0.481569000028685
super tree	0.346070999999938
coal tree	-0.692127000019354
coal tree	-2.41612100010025
super tree	4.48401499979809
coal tree	-3.05771899999854
super tree	2.85484099998939
coal tree	-3.8934560000007
super tree	2.49840399989989
super tree	1.41025099996932
super tree	3.68922499999007
super tree	2.29477300029976
super tree	0.599938999989718
super tree	7.34090400000059
super tree	2.76134400003048
super tree	0.611721999888687
super tree	0.819148000198766
super tree	0.806228000099509
coal tree	-2.78773500009993
super tree	4.4356310000494
coal tree	-6.28930600010062
coal tree	-2.08934900003987
super tree	3.97855699991851
super tree	1.22368899980029
super tree	5.22500500004026
coal tree	-2.42127000000983
super tree	7.43021399995996
coal tree	-1.65097100002004
coal tree	-0.139325999980429
super tree	0.720224999990023
super tree	2.7374990001008
coal tree	-6.89155700039919
super tree	0.292849000119531
super tree	0.0367849998001475
super tree	0.0698600000405349
coal tree	-1.52226800000972
super tree	5.45163799990041
super tree	1.09828399997059
super tree	0.121055000099659
coal tree	-2.11685999994006
coal tree	-4.10256399992977
coal tree	-2.76335499989727
super tree	4.21336599995084
super tree	0.0916100000104052
coal tree	-1.17197299999953
super tree	1.08649899997999
super tree	6.75116400000115
super tree	0.00222500010022486
super tree	5.11084000001938
coal tree	-0.548907999989751
coal tree	-3.85412700001871
super tree	1.75981600000159
super tree	6.50083100040138
coal tree	-8.0960869999999
coal tree	-0.651082999960636
coal tree	-3.72646100003021
coal tree	-0.175974999860046
super tree	0.529696999959924
super tree	0.947999999969397
coal tree	-4.21506899989981
coal tree	-3.17585400000007
super tree	2.34883199999967
super tree	8.08217700000023
coal tree	-6.84554800007027
super tree	1.19573099997979
super tree	4.76294199959739
super tree	0.969279999890205
super tree	0.859404000299037
coal tree	-1.29557600003136
super tree	1.06342899999981
super tree	2.00593099999969
super tree	6.25006899995969
coal tree	-3.31983399999808
coal tree	-1.85893799980113
super tree	1.41353699988031
super tree	1.0900070000007
coal tree	-2.01082800003041
coal tree	-3.55208000007042
coal tree	-1.46401299995978
super tree	4.6826130001009
super tree	2.20625899990046
super tree	1.93170400003874
coal tree	-2.80882999999994
super tree	1.38089799989939
coal tree	-1.11673099990003
super tree	8.38142599989988
super tree	0.359706000010192
super tree	2.99988800000983
super tree	0.713053000009495
super tree	1.65885199995955
super tree	0.486554999930377
coal tree	-2.06531299990093
coal tree	-0.285864000010406
super tree	1.9078060000993
coal tree	-0.29691899998943
super tree	3.97730200004935
coal tree	-1.12602300009894
super tree	6.13588600030016
coal tree	-0.6756320000095
coal tree	-3.66067100002056
super tree	1.79784999999993
coal tree	-7.27634000000035
coal tree	-5.55018600000039
super tree	4.70932200000243
super tree	2.14373000000978
super tree	4.21738100009861
super tree	0.56005899999991
coal tree	-6.45347699979902
super tree	1.04319299998951
super tree	1.72550299998966
super tree	1.49554199989871
super tree	5.61475499970038
coal tree	-6.24941600010061
super tree	0.4217149999904
coal tree	-0.211861000049794
