bp_1	1.63454900000033
bp_1	3.74983199999951
bp_0	0
bp_22	0.383770999999797
bp_1	2.32318799999848
bp_3	49.7343310000015
bp_0	0
bp_1	6.04533600000104
bp_1	2.7452830000002
bp_0	0
bp_0	0
bp_1	1.79484100000082
bp_1	0.612203000000591
bp_0	0
bp_3	5.29742199999964
bp_3	3.99227799999971
bp_3	0.346335999998701
bp_1	18.2759000000005
bp_3	0.237989999999627
bp_1	0.804949000001216
bp_1	2.19889500000136
bp_0	0
bp_9	1.46707499999866
bp_0	0
bp_1	1.28876299999956
bp_1	1.30379300000004
bp_7	2.23285899999973
bp_1	2.84852400000091
bp_0	0
bp_0	0
bp_3	0.254208999998809
bp_1	3.24591900000087
bp_1	3.03888999999981
bp_0	0
bp_1	6.70537600000171
bp_1	1.16388700000061
bp_1	6.22469099999944
bp_1	5.05573100000038
bp_0	0
bp_0	0
bp_1	1.45934800000032
bp_0	0
bp_0	0
bp_0	0
bp_0	0
bp_0	0
bp_0	0
bp_1	5.45873100000063
bp_1	0.817844999999579
bp_0	0
bp_0	0
bp_3	0.633697000000211
bp_3	16.6919620000008
bp_1	0.0931710000004387
bp_0	0
bp_0	0
bp_0	0
bp_0	0
bp_1	1.6081379999996
bp_1	3.84242599999925
bp_0	0
bp_0	0
bp_0	0
bp_1	7.50374099999863
bp_0	0
bp_1	4.88132699999915
bp_1	8.03384500000175
bp_3	3.35966499999995
bp_1	2.61514999999963
bp_0	0
bp_1	4.52048699999796
bp_1	1.3108029999994
bp_1	0.544458000000304
bp_0	0
bp_0	0
bp_0	0
bp_3	0.748069000000214
bp_3	0.103023000000576
bp_1	6.59850399999959
bp_0	0
bp_0	0
bp_0	0
bp_1	6.85260500000004
bp_0	0
bp_1	1.71577400000024
bp_1	14.0791320000008
bp_1	1.24211699999978
bp_3	0.218949000000066
bp_0	0
bp_0	0
bp_0	0
bp_1	3.63095799999974
bp_0	0
bp_1	1.27321699999993
bp_1	5.45827899999858
bp_0	0
bp_0	0
bp_1	1.98194299999886
bp_1	1.48125100000016
bp_1	6.78893900000003
bp_3	3.12410000000091
bp_1	2.75556899999901
bp_3	0.99714799999856
bp_1	1.6906140000001
bp_0	0
bp_3	0.274996000000101
bp_6	1.51342000000113
bp_5	0.125911999999516
bp_0	0
bp_1	4.50694900000053
bp_0	0
bp_1	1.3020319999996
bp_1	3.11152800000127
bp_1	2.81198300000324
bp_1	3.8443699999998
bp_0	0
bp_1	4.45577100000082
bp_1	7.48046400000021
bp_0	0
bp_3	9.77313700000013
bp_3	3.03792700000122
bp_3	0.0734309999970719
bp_1	7.80832499999997
bp_3	4.02690299999995
bp_1	9.40662100000009
bp_3	3.55810000000019
bp_0	0
bp_0	0
bp_1	1.97399199999927
bp_0	0
bp_5	0.569654999999329
bp_1	2.35345099999995
bp_0	0
bp_1	0.778984999997192
bp_1	3.23832399999992
bp_1	5.95288000000073
bp_0	0
bp_1	6.5012659999993
bp_0	0
bp_0	0
bp_0	0
bp_1	1.27917600000001
bp_9	4.12858199999937
bp_3	2.76764800000001
bp_0	0
bp_1	3.91284599999926
bp_3	1.68976799999928
bp_0	0
bp_0	0
bp_1	1.95655600000009
bp_0	0
bp_1	0.741430000000037
bp_3	5.36551700000018
bp_1	3.29192499999954
bp_1	3.98607500000071
bp_0	0
bp_1	5.98428999999851
bp_3	4.08748099999866
bp_0	0
bp_3	7.43950899999982
bp_1	2.57150300000103
bp_1	8.90748300000087
bp_0	0
bp_1	5.0192590000006
bp_0	0
bp_1	1.47666599999957
bp_1	3.02334599999995
bp_0	0
bp_0	0
bp_0	0
bp_0	0
bp_1	3.90999900000043
bp_0	0
bp_0	0
bp_0	0
bp_0	0
bp_0	0
bp_3	1.42246700000032
bp_1	1.57658399999946
bp_1	0.657681000000593
bp_3	0.714342999999644
bp_0	0
bp_0	0
bp_3	0.25705299999936
bp_1	0.271457000000737
bp_1	2.35625400000026
bp_3	6.1596040000004
bp_1	3.13342300000113
bp_1	0.366387999998551
bp_0	0
bp_1	3.86980500000027
bp_1	3.00674600000002
bp_1	5.60553599999912
bp_1	10.4904650000008
bp_0	0
bp_1	2.81501800000024
bp_1	1.95563299999958
bp_2	0.0151299999997718
bp_3	3.38191800000095
bp_3	2.39764300000024
bp_0	0
bp_13	1.67303899999979
bp_1	0.116606999999931
bp_3	0.220402999999806
bp_1	2.60248700000011
bp_1	1.2371779999994
bp_3	2.27482200000031
bp_0	0
bp_1	6.52417500000229
bp_0	0
bp_1	2.86842700000034
bp_0	0
bp_0	0
bp_1	11.3204939999996
bp_1	0.367283000001407
bp_1	0.870912999998836
bp_0	0
bp_5	4.07987700000012
bp_1	1.11703699999998
bp_0	0
bp_3	2.26827999999841
bp_0	0
bp_1	7.4790009999997
bp_0	0
bp_1	0.244466000000102
bp_0	0
bp_0	0
bp_1	0.648682000000008
bp_1	1.35959899999943
bp_1	1.74845900000037
bp_1	1.47309899999891
bp_1	3.19160399999964
bp_0	0
bp_0	0
bp_0	0
bp_0	0
bp_1	3.55445500000042
bp_0	0
bp_0	0
bp_1	0.787458999999217
bp_1	4.73117599999932
bp_0	0
bp_1	8.9028330000001
bp_0	0
bp_1	0.312069999999949
bp_0	0
bp_1	1.6708690000014
bp_0	0
bp_3	2.13130500000079
bp_3	1.5721250000006
bp_0	0
bp_0	0
bp_1	4.37816199999907
bp_3	0.748102999999901
bp_0	0
bp_1	0.885043000000223
bp_1	0.434597999999824
bp_1	5.61321300000054
bp_1	1.93783800000074
bp_0	0
bp_1	0.344469000000572
bp_0	0
bp_1	1.90002600000025
bp_1	2.15570599999955
bp_3	0.531393000000207
bp_1	1.19194199999947
bp_0	0
bp_0	0
bp_0	0
bp_1	5.82759600000099
bp_0	0
bp_3	4.74483299999883
bp_0	0
bp_3	3.68211499999961
bp_0	0
bp_0	0
bp_0	0
bp_3	1.30350699999872
bp_1	1.14397000000008
bp_0	0
bp_1	8.07526200000211
bp_3	0.334344000000783
bp_1	1.98780700000043
bp_1	2.41858499999944
bp_1	4.18313299999954
bp_0	0
bp_0	0
bp_1	2.96778999999879
bp_1	0.104597999999896
bp_0	0
bp_1	0.687762999998085
bp_0	0
bp_1	7.14766899999995
bp_0	0
bp_0	0
bp_1	2.57388099999935
bp_3	1.61238899999989
bp_0	0
bp_3	0.129833999999846
bp_3	2.73062299999947
bp_0	0
bp_3	0.643005999999332
bp_3	0.177119999998467
bp_1	8.24596500000007
bp_8	0.588489000000209
bp_1	4.59484599999996
bp_0	0
bp_1	3.14999700000044
bp_0	0
bp_0	0
bp_3	1.46029799999997
bp_1	3.32691100000011
bp_1	3.83358399999997
bp_1	7.15691599999991
bp_1	4.6398049999998
bp_3	2.54921400000057
bp_1	3.66949600000044
bp_3	0.818357000000105
bp_0	0
bp_1	0.0226450000000114
bp_1	3.39888799999972
bp_3	0.643102999998518
bp_0	0
bp_1	0.651709000000665
bp_3	1.61684000000059
bp_1	0.329773999999816
bp_1	0.0369229999996605
bp_0	0
bp_1	1.37258500000007
bp_0	0
bp_3	0.0244070000007923
bp_3	1.18369299999904
bp_1	4.96554099999958
bp_0	0
bp_7	1.75181599999996
bp_3	2.68174700000054
bp_0	0
bp_1	3.99248900000021
bp_0	0
bp_0	0
bp_0	0
bp_0	0
bp_1	3.47988700000133
bp_1	0.276845000000321
bp_0	0
bp_0	0
bp_1	5.08109500000046
bp_0	0
bp_1	3.49114299999928
bp_1	1.71248000000014
bp_16	28.4202229999992
bp_3	5.97595999999976
bp_1	3.63122400000066
bp_1	1.86847899999975
bp_3	3.40133900000001
bp_1	0.242083999999522
bp_0	0
bp_3	1.82754999999997
bp_3	0.701041999999688
bp_1	4.52486999999928
bp_0	0
bp_0	0
bp_1	0.891106000000946
bp_5	1.99271699999917
bp_0	0
bp_8	14.8366429999987
bp_3	3.2256239999997
bp_1	4.69216799999958
bp_1	6.82932299999993
bp_0	0
bp_0	0
bp_0	0
bp_1	2.10365300000194
bp_0	0
bp_1	1.31296399999701
bp_0	0
bp_0	0
bp_7	1.21927499999947
bp_0	0
bp_9	3.01077900000018
bp_0	0
bp_0	0
bp_0	0
bp_1	1.26655799999935
bp_0	0
bp_3	2.68612100000064
bp_1	3.80042899999989
bp_0	0
bp_1	2.85336000000007
bp_9	1.35471600000164
bp_0	0
bp_3	0.133066000000326
bp_3	1.04139299999952
bp_0	0
bp_1	3.81441300000006
bp_0	0
bp_3	5.63202799999999
bp_0	0
bp_1	3.12772700000096
bp_1	3.11672599999929
bp_3	0.860305999999582
bp_0	0
bp_1	0.531700999999885
bp_3	0.971573999999237
bp_0	0
bp_3	2.06808199999978
bp_1	1.55613799999992
bp_3	1.6270569999997
bp_0	0
bp_0	0
bp_0	0
bp_1	1.40493300000071
bp_1	3.23693699999967
bp_1	4.52182399999947
bp_1	1.53522300000077
bp_0	0
bp_1	1.38428200000089
bp_3	2.97442499999852
bp_1	2.17556100000002
bp_3	9.70880000000034
bp_0	0
bp_13	3.24507400000039
bp_0	0
bp_3	0.24715599999945
bp_1	0.732635999999729
bp_3	1.48977799999921
bp_1	3.07735700000012
bp_1	4.76499700000022
bp_1	2.49596399999973
bp_0	0
bp_1	1.03699400000005
bp_0	0
bp_0	0
bp_0	0
bp_3	1.01040300000022
bp_1	3.14027100000021
bp_0	0
bp_3	4.10283299999992
bp_1	7.39060600000084
bp_0	0
bp_0	0
bp_1	0.0132119999998395
bp_1	3.11071199999969
bp_1	4.37462899999991
bp_1	7.82279600000038
bp_0	0
bp_1	0.561311999999816
bp_1	10.0307440000033
bp_1	6.5006910000011
bp_1	2.54323899999963
bp_5	3.85520199999974
bp_0	0
bp_0	0
bp_0	0
bp_1	1.03900299999987
bp_1	0.317423999998937
bp_1	0.58873499999936
bp_1	1.7927550000004
bp_0	0
bp_3	0.648529000000053
bp_9	5.08191000000079
bp_0	0
bp_0	0
bp_1	3.79983999999968
bp_3	3.58613999999943
bp_0	0
bp_19	1.44124700000066
bp_0	0
bp_1	1.25552500000049
bp_0	0
bp_1	3.31806499999948
bp_1	3.83593099999962
bp_1	4.66612499999974
bp_3	0.0162300000001778
bp_1	2.33245100000022
bp_1	0.288292000001093
bp_0	0
bp_1	3.07577300000048
bp_1	2.70391600000039
bp_0	0
bp_1	4.71415400000024
bp_0	0
bp_19	1.6824389999997
bp_1	0.169944999999643
bp_3	1.49087000000054
bp_0	0
bp_3	1.07337800000005
bp_0	0
bp_1	1.35699699999896
bp_0	0
bp_0	0
bp_0	0
bp_1	8.37984800000049
bp_1	2.627837
bp_1	3.20347899999979
bp_1	1.81514400000015
bp_0	0
bp_1	2.2945120000004
bp_0	0
bp_1	9.41887000000133
bp_0	0
bp_3	1.05544000000009
bp_0	0
bp_0	0
bp_1	1.30719100000078
bp_0	0
bp_0	0
bp_0	0
bp_0	0
bp_1	2.37096200000087
bp_9	1.72450299999946
bp_0	0
bp_1	0.536828000000241
bp_13	2.34281199999987
bp_0	0
bp_0	0
bp_1	7.18866800000069
bp_0	0
bp_0	0
bp_3	2.83986099999947
bp_0	0
bp_1	6.96196000000054
bp_1	3.88260099999934
bp_1	1.04016000000047
bp_3	5.84158100000059
bp_0	0
bp_1	5.69570200000089
bp_1	5.57152700000006
bp_3	0.24309699999867
bp_1	0.0244259999999485
bp_0	0
bp_1	2.592478999999
bp_1	2.43680200000017
bp_1	3.28499900000133
bp_3	6.92934000000059
bp_0	0
bp_3	2.44114700000137
bp_0	0
bp_1	4.92453900000146
bp_1	9.5882959999999
bp_3	1.65340900000047
bp_13	1.08863399999973
bp_1	1.49833500000022
bp_0	0
bp_0	0
bp_1	4.74450400000023
bp_0	0
bp_0	0
bp_0	0
bp_0	0
bp_1	5.79634000000078
bp_5	0.712134999999762
bp_1	2.94074399999954
bp_0	0
bp_0	0
bp_1	7.89132299999983
bp_1	4.47390300000006
bp_1	0.303282000000763
bp_0	0
bp_1	1.59661799999958
bp_3	1.10169499999938
bp_2	0.550432000000001
bp_1	6.85067199999867
bp_1	7.64935200000036
bp_3	1.07900899999913
bp_3	4.69605799999954
bp_1	0.562170000000151
bp_0	0
bp_0	0
bp_0	0
bp_0	0
bp_0	0
bp_0	0
bp_0	0
bp_13	1.72011799999927
bp_0	0
bp_1	1.60409100000015
bp_1	0.00593300000036834
bp_0	0
bp_0	0
bp_0	0
bp_1	5.79234200000064
bp_3	1.10521900000094
bp_1	0.98949900000116
bp_1	3.29918999999973
bp_3	2.70249999999942
bp_7	3.52036300000009
bp_0	0
bp_0	0
bp_0	0
bp_3	2.9493950000001
bp_0	0
bp_1	2.34266600000046
bp_0	0
bp_1	0.0771949999998469
bp_3	3.19223800000145
bp_1	3.71095199999945
bp_0	0
bp_0	0
bp_0	0
bp_0	0
bp_1	7.2973949999996
bp_1	2.53373500000089
bp_1	1.74888900000042
bp_0	0
bp_1	4.96957199999997
bp_0	0
bp_0	0
bp_0	0
bp_3	0.131984999999986
bp_1	0.074280999997427
bp_1	1.70220000000063
bp_1	3.33562700000039
bp_3	0.0369259999997666
bp_1	6.55124099999921
bp_1	0.563404999999875
bp_0	0
bp_1	1.34001699999862
bp_0	0
bp_0	0
bp_3	0.406410000001415
bp_0	0
bp_3	2.06099399999948
bp_3	2.08455999999933
bp_1	6.01443400000062
bp_1	2.49335400000018
bp_1	2.28796899999907
bp_1	12.660084000001
bp_1	3.19019500000104
bp_1	6.33805399999983
bp_1	1.0780450000002
bp_0	0
bp_0	0
bp_0	0
bp_1	7.91119499999877
bp_1	4.87480700000015
bp_0	0
bp_1	1.17764400000124
bp_1	2.5659969999997
bp_1	4.6094979999998
bp_0	0
bp_3	4.86151100000097
bp_0	0
bp_0	0
bp_0	0
bp_1	5.50065899999936
bp_3	1.82459500000004
bp_3	4.57421200000317
bp_1	5.65439499999957
bp_1	5.2568040000001
bp_3	0.484612000000197
bp_1	0.822409999998854
bp_0	0
bp_0	0
bp_1	3.30443299999934
bp_0	0
bp_0	0
bp_1	0.307403999999224
bp_0	0
bp_0	0
bp_0	0
bp_0	0
bp_0	0
bp_0	0
bp_0	0
bp_1	4.69318199999907
bp_0	0
bp_1	2.00041099999999
bp_0	0
bp_3	0.223603000000367
bp_1	1.09582200000114
bp_0	0
bp_0	0
bp_3	1.91975599999932
bp_3	0.884973999999602
bp_0	0
bp_1	4.88626199999999
bp_1	0.5459039999987
bp_0	0
bp_3	1.00009899999986
bp_1	8.7772240000013
bp_3	4.58504100000027
bp_0	0
bp_0	0
bp_3	2.21780100000069
bp_1	8.17269399999896
bp_1	4.90232100000139
bp_3	1.5412750000005
bp_1	1.18290800000068
bp_1	3.73979700000018
bp_1	7.43316899999991
bp_1	0.777828000000227
bp_1	4.00289800000064
bp_3	1.41829599999983
bp_1	2.62351199999921
bp_1	6.59140300000217
bp_3	1.07157200000074
bp_0	0
bp_0	0
bp_1	11.5080170000001
bp_1	1.25987499999974
bp_0	0
bp_1	2.19389199999932
bp_1	0.953594000000521
bp_1	2.76656800000001
bp_1	2.14029800000026
bp_3	4.96564199999921
bp_0	0
bp_1	0.245621000000028
bp_1	0.669590000001335
bp_0	0
bp_3	0.640470999998797
bp_0	0
bp_3	2.19885000000068
bp_0	0
bp_3	1.23583700000017
bp_1	3.06351100000029
bp_0	0
bp_1	7.18456000000151
bp_1	3.4456739999996
bp_1	3.64534400000048
bp_0	0
bp_1	0.980916999998954
bp_3	0.571914000000106
bp_0	0
bp_0	0
bp_0	0
bp_1	2.41367499999978
bp_1	2.700882000001
bp_3	0.100996999999552
bp_1	3.65821899999901
bp_1	2.09045900000001
bp_0	0
bp_0	0
bp_0	0
bp_3	1.61927399999968
bp_3	1.2195329999995
bp_1	8.05459199999859
bp_1	0.6338310000001
bp_1	0.594790999999532
bp_1	0.785515000000032
bp_0	0
bp_0	0
bp_0	0
bp_0	0
bp_0	0
bp_0	0
bp_1	4.64188800000011
bp_1	4.53876900000068
bp_0	0
bp_3	3.0336610000013
bp_1	0.554775999999947
bp_0	0
bp_1	1.76283800000056
bp_0	0
bp_1	5.20567599999958
bp_1	5.31926799999928
bp_0	0
bp_0	0
bp_1	0.0414839999994001
bp_1	1.97645699999975
bp_0	0
bp_3	3.45151900000019
bp_0	0
bp_3	1.35099000000082
bp_0	0
bp_3	0.398585000000821
bp_0	0
bp_0	0
bp_1	1.43372199999976
bp_1	1.77718699999969
bp_3	4.82870100000036
bp_0	0
bp_0	0
bp_6	3.84734300000036
bp_1	3.55947099999867
bp_3	0.0162520000012591
bp_1	6.38981500000045
bp_1	0.540377000001172
bp_1	0.0747759999994742
bp_1	3.38232900000003
bp_0	0
bp_1	8.79098200000044
bp_1	2.6340309999996
bp_1	1.12464600000021
bp_0	0
bp_1	0.550226999999722
bp_1	4.64013399999931
bp_0	0
bp_3	1.80344200000036
bp_0	0
bp_1	3.56995199999983
bp_0	0
bp_1	2.32212100000015
bp_1	3.74038700000165
bp_1	2.64170300000114
bp_3	2.46744000000035
bp_1	0.958416999999827
bp_1	0.938743000000613
bp_0	0
bp_0	0
bp_13	0.498489999999947
bp_3	1.48565400000007
bp_1	4.80813900000066
bp_1	0.650963000000047
bp_0	0
bp_3	0.427406999999221
bp_0	0
bp_1	9.39423400000123
bp_0	0
bp_1	4.97726599999987
bp_0	0
bp_35	3.93749599999956
bp_3	0.669078000000809
bp_3	1.47775600000023
bp_1	4.24011699999937
bp_3	2.28166099999999
bp_0	0
bp_1	5.03440500000033
bp_1	2.26372099999935
bp_0	0
bp_0	0
bp_3	5.86783099999957
bp_0	0
bp_0	0
bp_0	0
bp_0	0
bp_0	0
bp_3	0.661761999999726
bp_0	0
bp_0	0
bp_1	1.33242400000017
bp_0	0
bp_1	2.10092500000064
bp_3	0.285353999999643
bp_3	2.52682399999958
bp_10	28.8748500000002
bp_1	0.105217999998786
bp_1	0.626426999999239
bp_0	0
bp_0	0
bp_0	0
bp_0	0
bp_0	0
bp_1	4.61620099999982
bp_0	0
bp_0	0
bp_1	3.0423580000006
bp_3	4.43307899999854
bp_3	1.08399399999962
bp_0	0
bp_4	0.233179000000291
bp_1	4.44896900000003
bp_1	0.717214999999669
bp_3	2.94410399999833
bp_0	0
bp_0	0
bp_0	0
bp_3	0.702981999998883
bp_0	0
bp_0	0
bp_1	4.29474499999924
bp_1	2.08775900000001
bp_0	0
bp_1	0.241275999998834
bp_1	3.0117059999975
bp_1	3.41045900000063
bp_1	7.97320600000057
bp_0	0
bp_0	0
bp_3	0.463566000002174
bp_1	3.76308199999949
bp_0	0
bp_3	2.4672329999994
bp_0	0
bp_1	0.181002000001172
bp_13	3.10995900000034
bp_1	3.27113199999985
bp_0	0
bp_1	1.53485399999954
bp_0	0
bp_1	2.65826000000015
bp_0	0
bp_0	0
bp_2	5.18529900000021
bp_3	0.532578000000285
bp_1	1.82767000000058
bp_1	1.83961499999987
bp_0	0
bp_1	4.06330000000071
bp_3	1.63057499999968
bp_1	1.74841199999901
bp_0	0
bp_0	0
bp_1	4.97992100000192
bp_1	0.259986000000026
bp_3	1.34665999999925
bp_0	0
bp_1	2.74756299999899
bp_0	0
bp_0	0
bp_0	0
bp_1	0.729686999999103
bp_1	1.67130399999951
bp_1	2.8465240000005
bp_1	4.63169199999902
bp_9	3.24222599999939
bp_0	0
bp_1	12.3589639999991
bp_0	0
bp_0	0
bp_32	0.0837639999999737
bp_3	3.7935550000002
bp_1	5.29586399999971
bp_1	4.05901799999992
bp_3	2.77990399999999
bp_0	0
bp_1	0.468000000000757
bp_0	0
bp_3	4.15664099999958
bp_1	1.68656799999962
bp_1	13.2367919999997
bp_0	0
bp_5	20.0012370000004
bp_2	2.03919099999985
bp_1	2.63885699999992
bp_0	0
bp_0	0
bp_0	0
bp_3	2.19762699999956
bp_0	0
bp_3	0.339277999999467
bp_1	1.36391100000037
bp_0	0
bp_0	0
bp_0	0
bp_0	0
bp_1	2.58074399999896
bp_1	3.13546399999905
bp_1	5.37106700000004
bp_0	0
bp_0	0
bp_1	3.22172399999999
bp_0	0
bp_1	5.48779099999956
bp_1	1.95337899999868
bp_3	2.81401600000027
bp_1	2.08085200000005
bp_0	0
bp_0	0
bp_3	4.66503000000012
bp_1	6.08239299999877
bp_0	0
bp_1	2.62724200000048
bp_1	1.18353900000147
bp_1	3.66094200000225
bp_1	1.57556799999929
bp_0	0
bp_0	0
bp_1	8.46051999999872
bp_1	36.3510420000002
bp_1	2.71139399999993
bp_0	0
bp_1	9.03756200000043
bp_1	0.969076000000314
bp_0	0
bp_0	0
bp_3	2.28352900000027
bp_0	0
bp_1	5.54323799999838
bp_3	0.0367200000000594
bp_0	0
bp_0	0
bp_1	1.56012499999997
bp_0	0
bp_1	6.6211919999987
bp_1	4.93710000000101
bp_0	0
bp_0	0
bp_0	0
bp_0	0
bp_0	0
bp_1	5.52790299999833
bp_0	0
bp_3	0.701246999999057
bp_1	3.5485979999994
bp_0	0
bp_3	5.30834999999934
bp_1	1.04851300000064
bp_0	0
bp_1	0.606001999998625
bp_0	0
bp_1	9.47841599999992
bp_1	1.01564300000064
bp_0	0
bp_3	5.23288200000025
bp_3	2.13950999999997
bp_0	0
bp_3	4.22342800000115
bp_1	0.10416400000031
bp_1	3.37131700000009
bp_0	0
bp_0	0
bp_0	0
bp_3	0.905616000000009
bp_3	1.21445799999947
bp_1	0.855555000000095
bp_3	2.51056799999969
bp_0	0
bp_0	0
bp_0	0
bp_1	2.62337300000036
bp_0	0
bp_0	0
bp_0	0
bp_1	2.2940709999998
bp_6	1.02502499999991
bp_0	0
bp_1	35.5877839999994
bp_1	2.59093200000098
bp_3	1.70619199999965
bp_0	0
bp_0	0
bp_0	0
bp_1	5.91191499999877
bp_0	0
bp_0	0
bp_3	1.47421699999904
bp_0	0
bp_0	0
bp_0	0
bp_0	0
bp_0	0
bp_1	0.741003000000092
bp_13	3.78283300000112
bp_0	0
bp_0	0
bp_1	0.791164999998728
bp_0	0
bp_0	0
bp_1	1.21054800000002
bp_3	0.762719999999717
bp_0	0
bp_1	11.184827000001
bp_1	6.05168499999945
bp_3	3.00372599999992
bp_1	1.79043699999966
bp_1	1.72824100000071
bp_1	3.16718600000058
bp_0	0
bp_3	2.92678299999989
bp_0	0
bp_0	0
bp_1	0.932819999999992
bp_1	0.586240999999973
bp_1	0.995132999999441
bp_1	3.77356299999974
bp_1	3.3211480000009
bp_1	7.20752499999981
bp_1	5.38863700000002
bp_0	0
bp_1	2.95829100000083
bp_1	0.741713999999774
bp_0	0
bp_1	5.03629699999874
bp_1	3.01892699999917
bp_1	1.9907230000008
bp_0	0
bp_0	0
bp_3	2.50312400000075
bp_0	0
bp_1	0.600535000000491
bp_1	2.27660699999979
bp_0	0
bp_1	6.24851899999885
bp_0	0
bp_0	0
bp_0	0
bp_0	0
bp_0	0
bp_1	0.673174999999901
bp_1	6.48723900000005
bp_1	0.749262000000272
bp_1	0.933579999999893
bp_5	2.52168499999971
bp_1	18.8236129999987
bp_0	0
bp_2	0.591263000000254
bp_0	0
bp_1	6.51431299999967
bp_1	1.05048800000077
bp_1	3.11187100000006
bp_1	6.93270100000063
bp_1	4.82993200000055
bp_0	0
bp_1	3.70841399999881
bp_3	0.657952999999907
bp_1	1.83761400000003
bp_1	0.341704000000391
bp_0	0
bp_1	5.53904900000089
bp_1	0.775037999999768
bp_0	0
bp_1	6.6774260000002
bp_1	4.7438689999999
bp_1	1.17582800000037
bp_0	0
bp_3	2.36541399999987
bp_0	0
bp_5	3.4146980000005
bp_1	5.3405819999989
bp_3	3.95045500000015
bp_1	1.46408199999996
bp_1	5.28034999999909
bp_9	4.66665400000056
bp_3	4.41826900000069
bp_3	0.0265090000000328
bp_0	0
bp_3	1.04991199999949
bp_1	0.583560999999918
bp_3	2.55511699999988
bp_1	3.04145499999868
bp_1	0.510967999998684
bp_3	2.60429899999872
bp_1	0.676991000000271
bp_1	2.64162899999974
bp_0	0
bp_1	3.13237399999889
bp_0	0
bp_1	3.90079700000024
bp_3	1.06611599999997
bp_0	0
bp_0	0
bp_0	0
bp_0	0
bp_0	0
bp_0	0
bp_3	2.69719299999997
bp_0	0
bp_1	0.0458109999999579
bp_1	3.11089600000014
bp_0	0
bp_1	6.50786099999823
bp_1	2.10102999999981
bp_0	0
bp_0	0
bp_0	0
bp_1	4.52900300000056
bp_0	0
bp_1	1.55457899999965
bp_1	0.0449689999986731
bp_0	0
bp_3	4.31209899999885
bp_1	6.8989909999982
bp_3	0.191356000000269
bp_0	0
bp_0	0
bp_1	1.47771799999964
bp_0	0
bp_0	0
bp_3	1.57369299999846
bp_1	2.22307499999988
bp_1	3.01245399999971
bp_1	1.76795000000129
bp_0	0
bp_0	0
bp_1	1.17861100000027
bp_0	0
bp_0	0
bp_3	1.0065369999993
bp_0	0
bp_3	1.00485500000013
bp_3	5.23715999999877
bp_3	3.66243799999938
bp_0	0
bp_1	8.22151599999961
bp_1	0.769726999999875
bp_1	3.64890699999978
bp_0	0
bp_3	1.45167699999911
bp_0	0
bp_1	4.1051469999984
bp_3	4.64640500000041
bp_0	0
bp_0	0
bp_1	10.8461980000011
bp_0	0
bp_0	0
bp_0	0
bp_3	6.29850099999931
bp_1	1.72238300000026
bp_0	0
bp_0	0
bp_0	0
bp_1	3.32797399999981
bp_1	1.62810499999978
bp_0	0
bp_3	1.2432289999997
bp_1	1.97438700000021
bp_1	3.0704910000004
bp_1	5.43991100000039
bp_0	0
bp_0	0
bp_0	0
bp_1	3.03139499999997
bp_0	0
bp_1	1.32811199999924
bp_0	0
bp_0	0
bp_0	0
bp_0	0
bp_0	0
bp_0	0
bp_1	1.94454899999982
bp_3	1.13656100000026
bp_0	0
bp_3	8.8627149999993
bp_0	0
bp_1	1.14259200000015
bp_0	0
bp_1	1.08727999999974
bp_1	3.32605899999999
bp_12	0.994001999999909
bp_1	11.7763489999998
bp_1	5.69350999999915
bp_0	0
bp_0	0
bp_0	0
bp_0	0
bp_1	6.46716799999922
bp_0	0
bp_0	0
bp_0	0
bp_0	0
bp_1	6.60335400000076
bp_0	0
bp_1	1.18116399999963
