bp_1	1.13470800000005
bp_1	53.9957520000003
bp_0	0
bp_1	6.05270800003018
bp_0	0
bp_0	0
bp_1	20.38971699999
bp_1	29.893759
bp_1	11.9815329999592
bp_1	2.50740000004043
bp_1	8.32841800001916
bp_1	9.6976539999705
bp_0	0
bp_1	42.98040699998
bp_0	0
bp_0	0
bp_0	0
bp_1	19.13035299999
bp_1	36.9075470000002
bp_1	46.9758070000107
bp_1	3.42964199999005
bp_1	45.8633210000098
bp_0	0
bp_0	0
bp_0	0
bp_1	4.37148100001014
bp_1	21.8964259999702
bp_1	6.08525300003021
bp_1	18.9026960000197
bp_0	0
bp_1	1.76882000001024
bp_0	0
bp_1	47.7923529999798
bp_0	0
bp_1	9.22942499996952
bp_0	0
bp_1	8.60250700000006
bp_0	0
bp_1	30.2502699999595
bp_0	0
bp_1	21.74375900002
bp_1	0.44720199998028
bp_1	11.5106019999994
bp_1	4.59841800002005
bp_1	2.72461199998997
bp_0	0
bp_0	0
bp_1	9.81361800001014
bp_1	12.9734740000104
bp_1	15.9065429999996
bp_1	5.90415900003018
bp_1	29.4842200000003
bp_0	0
bp_0	0
bp_1	46.6727000000201
bp_0	0
bp_0	0
bp_1	1.39740299998994
bp_0	0
bp_1	19.712012
bp_0	0
bp_1	17.8798689999903
bp_1	28.5283040000095
bp_1	1.05107800001997
bp_1	40.5948309999994
bp_0	0
bp_1	0.873982999989948
bp_1	16.2676229999997
bp_0	0
bp_1	3.16523200005031
bp_1	64.7207169999801
bp_1	6.94592799999009
bp_1	14.6519110000004
bp_0	0
bp_0	0
bp_0	0
bp_1	52.7463769999999
bp_1	14.9846299999899
bp_0	0
bp_1	19.44467299999
bp_1	27.0088739999901
bp_0	0
bp_0	0
bp_0	0
bp_0	0
bp_1	11.96072
bp_1	5.43688699999984
bp_0	0
bp_1	10.4462139999896
bp_0	0
bp_1	11.1080789999405
bp_0	0
bp_1	20.5128259999792
bp_1	15.8711640000001
bp_1	3.18881100003
bp_0	0
bp_1	14.0858099999996
bp_1	31.5652689999506
bp_0	0
bp_1	1.59429000001001
bp_1	13.9373480000104
bp_1	14.8904500000099
bp_1	28.6388700000098
bp_0	0
bp_0	0
bp_1	6.28921500000979
bp_0	0
bp_1	1.99302200000056
bp_1	22.0082850000099
bp_0	0
bp_1	5.0079250000008
bp_0	0
bp_1	6.57567199998994
bp_1	30.090005
bp_1	15.8381810000101
bp_1	28.276707
bp_0	0
bp_0	0
bp_1	16.2999519999998
bp_0	0
bp_0	0
bp_1	14.4699930000006
bp_1	17.685223
bp_1	2.81296699998984
bp_0	0
bp_1	7.8872190000202
bp_1	13.4164410000203
bp_1	25.5949549999796
bp_1	14.68332100001
bp_0	0
bp_0	0
bp_0	0
bp_1	0.0590139999999337
bp_1	1.58979299998009
bp_0	0
bp_1	18.4613990000098
bp_1	8.24169799999981
bp_0	0
bp_0	0
bp_0	0
bp_0	0
bp_1	1.05056000000968
bp_1	4.06905999998071
bp_0	0
bp_1	6.85330400001976
bp_0	0
bp_0	0
bp_0	0
bp_1	7.45942300001025
bp_1	60.7180120000403
bp_0	0
bp_0	0
bp_1	12.8079760000001
bp_1	43.9350020000102
bp_0	0
bp_0	0
bp_0	0
bp_1	28.3342469999702
bp_1	3.48235100000966
bp_1	2.08315700000003
bp_1	12.8475320000002
bp_1	13.0970549999997
bp_1	25.4683139999797
bp_1	30.9558079999897
bp_0	0
bp_1	9.2819959999897
bp_1	9.03915400000005
bp_0	0
bp_1	11.3515729999799
bp_1	25.6788379999998
bp_1	17.1075469999905
bp_1	24.975473
bp_1	10.3807000000006
bp_1	17.0174160000001
bp_0	0
bp_0	0
bp_1	25.9712510000099
bp_0	0
bp_1	3.9516279999998
bp_0	0
bp_0	0
bp_1	7.79623899998933
bp_0	0
bp_1	14.0413680000001
bp_1	8.79072000004999
bp_1	30.1055770000203
bp_1	45.7765839999902
bp_0	0
bp_1	27.9319830000104
bp_0	0
bp_1	16.1379620000002
bp_1	19.5860259999799
bp_1	4.95333900001015
bp_1	28.9020499999997
bp_0	0
bp_1	19.8206169999999
bp_0	0
bp_0	0
bp_1	21.217324
bp_1	3.63667400000986
bp_1	44.26328500002
bp_1	6.14345600003026
bp_1	12.8531200000207
bp_0	0
bp_1	23.0669670000098
bp_0	0
bp_0	0
bp_1	1.60277199998973
bp_1	19.44763100001
bp_1	18.4140949999999
bp_1	28.0141470000199
bp_1	7.12499499999967
bp_1	24.1324030000001
bp_1	6.68378299999995
bp_1	18.0251019999805
bp_1	1.70361499999944
bp_0	0
bp_1	4.54288300004009
bp_1	30.066769
bp_1	8.10762199999999
bp_0	0
bp_1	3.89717300008033
bp_1	22.4287359999998
bp_0	0
bp_1	16.3724570000099
bp_0	0
bp_1	5.86516200002006
bp_0	0
bp_1	14.3271249999898
bp_0	0
bp_0	0
bp_1	1.00486199999978
bp_1	3.91053799999963
bp_1	20.4052179999899
bp_1	49.7792220000001
bp_1	0.401823999980479
bp_0	0
bp_1	33.5493410000399
bp_0	0
bp_1	0.156189999990147
bp_1	12.1691020000003
bp_0	0
bp_1	6.83207999999968
bp_1	12.5941580000099
bp_1	7.19368400002986
bp_1	37.1068210000303
bp_0	0
bp_1	2.36587299999019
